ISO-10303-21;
HEADER;
/* Generated by software containing ST-Developer
 * from STEP Tools, Inc. (www.steptools.com) 
 */

FILE_DESCRIPTION(
/* description */ (''),
/* implementation_level */ '2;1');

FILE_NAME(
/* name */ 
'/Volumes/homes/mblair/VintageComputing/CFFA3000/CFFA3000 Remote v1.0B
 Enclosure/CFFA3000 Remote v1.0B Enclosure Bottom.stp',
/* time_stamp */ '2016-07-10T12:06:16-07:00',
/* author */ (''),
/* organization */ (''),
/* preprocessor_version */ 'ST-DEVELOPER v16.5',
/* originating_system */ 'Autodesk Translation Framework v5.1.0.3141',
/* authorisation */ '');

FILE_SCHEMA (('AUTOMOTIVE_DESIGN { 1 0 10303 214 3 1 1 }'));
ENDSEC;

DATA;
#10=MECHANICAL_DESIGN_GEOMETRIC_PRESENTATION_REPRESENTATION('',(#16),#1705);
#11=DIMENSIONAL_EXPONENTS(0.,0.,0.,0.,0.,0.,0.);
#12=(
CONVERSION_BASED_UNIT('degree',#13)
NAMED_UNIT(#11)
PLANE_ANGLE_UNIT()
);
#13=PLANE_ANGLE_MEASURE_WITH_UNIT(PLANE_ANGLE_MEASURE(0.01745329252),#1707);
#14=SHAPE_REPRESENTATION_RELATIONSHIP('SRR','None',#1712,#15);
#15=ADVANCED_BREP_SHAPE_REPRESENTATION('',(#17),#1704);
#16=STYLED_ITEM('',(#1721),#17);
#17=MANIFOLD_SOLID_BREP('Body1',#1033);
#18=CYLINDRICAL_SURFACE('',#1085,1.016);
#19=CYLINDRICAL_SURFACE('',#1088,1.016);
#20=CYLINDRICAL_SURFACE('',#1099,1.016);
#21=CYLINDRICAL_SURFACE('',#1117,0.18415);
#22=CYLINDRICAL_SURFACE('',#1118,0.18415);
#23=CYLINDRICAL_SURFACE('',#1119,0.18415);
#24=CYLINDRICAL_SURFACE('',#1120,0.18415);
#25=CYLINDRICAL_SURFACE('',#1121,1.016);
#26=CONICAL_SURFACE('',#1072,0.984249999999998,0.785398163397446);
#27=CONICAL_SURFACE('',#1075,0.984249999999998,0.785398163397448);
#28=CONICAL_SURFACE('',#1078,0.984250000000001,0.785398163397449);
#29=CONICAL_SURFACE('',#1081,0.98425,0.785398163397447);
#30=CONICAL_SURFACE('',#1090,0.984250000000001,0.785398163397449);
#31=CONICAL_SURFACE('',#1093,0.984249999999998,0.785398163397448);
#32=CONICAL_SURFACE('',#1095,0.984249999999998,0.785398163397446);
#33=CONICAL_SURFACE('',#1097,0.98425,0.785398163397447);
#34=CONICAL_SURFACE('',#1100,0.28575,0.698131700797732);
#35=CONICAL_SURFACE('',#1109,0.28575,0.698131700797732);
#36=CONICAL_SURFACE('',#1112,0.28575,0.698131700797731);
#37=CONICAL_SURFACE('',#1114,0.28575,0.698131700797731);
#38=FACE_BOUND('',#147,.T.);
#39=FACE_BOUND('',#148,.T.);
#40=FACE_BOUND('',#149,.T.);
#41=FACE_BOUND('',#150,.T.);
#42=FACE_BOUND('',#155,.T.);
#43=FACE_BOUND('',#182,.T.);
#44=FACE_BOUND('',#187,.T.);
#45=FACE_BOUND('',#190,.T.);
#46=FACE_BOUND('',#192,.T.);
#47=CIRCLE('',#1047,0.9525);
#48=CIRCLE('',#1048,0.952499999999998);
#49=CIRCLE('',#1049,0.952499999999998);
#50=CIRCLE('',#1050,0.952500000000001);
#51=CIRCLE('',#1051,0.38735);
#52=CIRCLE('',#1052,0.38735);
#53=CIRCLE('',#1053,0.38735);
#54=CIRCLE('',#1054,0.38735);
#55=CIRCLE('',#1059,0.952500000000001);
#56=CIRCLE('',#1060,0.952499999999998);
#57=CIRCLE('',#1061,0.952499999999998);
#58=CIRCLE('',#1062,0.9525);
#59=CIRCLE('',#1063,0.18415);
#60=CIRCLE('',#1064,0.18415);
#61=CIRCLE('',#1065,0.18415);
#62=CIRCLE('',#1066,0.18415);
#63=CIRCLE('',#1073,1.016);
#64=CIRCLE('',#1076,1.016);
#65=CIRCLE('',#1079,1.016);
#66=CIRCLE('',#1082,1.016);
#67=CIRCLE('',#1086,1.016);
#68=CIRCLE('',#1089,1.016);
#69=CIRCLE('',#1091,1.016);
#70=CIRCLE('',#1098,1.016);
#71=CIRCLE('',#1101,0.18415);
#72=CIRCLE('',#1102,0.227501520260728);
#73=CIRCLE('',#1105,0.227501520260728);
#74=CIRCLE('',#1106,0.227501520260728);
#75=CIRCLE('',#1107,0.227501520260728);
#76=CIRCLE('',#1110,0.18415);
#77=CIRCLE('',#1113,0.18415);
#78=CIRCLE('',#1115,0.18415);
#79=FACE_OUTER_BOUND('',#135,.T.);
#80=FACE_OUTER_BOUND('',#136,.T.);
#81=FACE_OUTER_BOUND('',#137,.T.);
#82=FACE_OUTER_BOUND('',#138,.T.);
#83=FACE_OUTER_BOUND('',#139,.T.);
#84=FACE_OUTER_BOUND('',#140,.T.);
#85=FACE_OUTER_BOUND('',#141,.T.);
#86=FACE_OUTER_BOUND('',#142,.T.);
#87=FACE_OUTER_BOUND('',#143,.T.);
#88=FACE_OUTER_BOUND('',#144,.T.);
#89=FACE_OUTER_BOUND('',#145,.T.);
#90=FACE_OUTER_BOUND('',#146,.T.);
#91=FACE_OUTER_BOUND('',#151,.T.);
#92=FACE_OUTER_BOUND('',#152,.T.);
#93=FACE_OUTER_BOUND('',#153,.T.);
#94=FACE_OUTER_BOUND('',#154,.T.);
#95=FACE_OUTER_BOUND('',#156,.T.);
#96=FACE_OUTER_BOUND('',#157,.T.);
#97=FACE_OUTER_BOUND('',#158,.T.);
#98=FACE_OUTER_BOUND('',#159,.T.);
#99=FACE_OUTER_BOUND('',#160,.T.);
#100=FACE_OUTER_BOUND('',#161,.T.);
#101=FACE_OUTER_BOUND('',#162,.T.);
#102=FACE_OUTER_BOUND('',#163,.T.);
#103=FACE_OUTER_BOUND('',#164,.T.);
#104=FACE_OUTER_BOUND('',#165,.T.);
#105=FACE_OUTER_BOUND('',#166,.T.);
#106=FACE_OUTER_BOUND('',#167,.T.);
#107=FACE_OUTER_BOUND('',#168,.T.);
#108=FACE_OUTER_BOUND('',#169,.T.);
#109=FACE_OUTER_BOUND('',#170,.T.);
#110=FACE_OUTER_BOUND('',#171,.T.);
#111=FACE_OUTER_BOUND('',#172,.T.);
#112=FACE_OUTER_BOUND('',#173,.T.);
#113=FACE_OUTER_BOUND('',#174,.T.);
#114=FACE_OUTER_BOUND('',#175,.T.);
#115=FACE_OUTER_BOUND('',#176,.T.);
#116=FACE_OUTER_BOUND('',#177,.T.);
#117=FACE_OUTER_BOUND('',#178,.T.);
#118=FACE_OUTER_BOUND('',#179,.T.);
#119=FACE_OUTER_BOUND('',#180,.T.);
#120=FACE_OUTER_BOUND('',#181,.T.);
#121=FACE_OUTER_BOUND('',#183,.T.);
#122=FACE_OUTER_BOUND('',#184,.T.);
#123=FACE_OUTER_BOUND('',#185,.T.);
#124=FACE_OUTER_BOUND('',#186,.T.);
#125=FACE_OUTER_BOUND('',#188,.T.);
#126=FACE_OUTER_BOUND('',#189,.T.);
#127=FACE_OUTER_BOUND('',#191,.T.);
#128=FACE_OUTER_BOUND('',#193,.T.);
#129=FACE_OUTER_BOUND('',#194,.T.);
#130=FACE_OUTER_BOUND('',#195,.T.);
#131=FACE_OUTER_BOUND('',#196,.T.);
#132=FACE_OUTER_BOUND('',#197,.T.);
#133=FACE_OUTER_BOUND('',#198,.T.);
#134=FACE_OUTER_BOUND('',#199,.T.);
#135=EDGE_LOOP('',(#655,#656,#657,#658,#659,#660));
#136=EDGE_LOOP('',(#661,#662,#663,#664,#665,#666));
#137=EDGE_LOOP('',(#667,#668,#669,#670));
#138=EDGE_LOOP('',(#671,#672,#673,#674,#675,#676));
#139=EDGE_LOOP('',(#677,#678,#679,#680,#681,#682));
#140=EDGE_LOOP('',(#683,#684,#685,#686));
#141=EDGE_LOOP('',(#687,#688,#689,#690,#691));
#142=EDGE_LOOP('',(#692,#693,#694,#695));
#143=EDGE_LOOP('',(#696,#697,#698,#699));
#144=EDGE_LOOP('',(#700,#701,#702,#703,#704));
#145=EDGE_LOOP('',(#705,#706,#707,#708,#709));
#146=EDGE_LOOP('',(#710,#711,#712,#713,#714,#715,#716,#717,#718,#719,#720,
#721));
#147=EDGE_LOOP('',(#722));
#148=EDGE_LOOP('',(#723));
#149=EDGE_LOOP('',(#724));
#150=EDGE_LOOP('',(#725));
#151=EDGE_LOOP('',(#726,#727,#728,#729,#730));
#152=EDGE_LOOP('',(#731,#732,#733,#734,#735,#736,#737));
#153=EDGE_LOOP('',(#738,#739,#740,#741,#742,#743,#744));
#154=EDGE_LOOP('',(#745,#746,#747,#748,#749,#750,#751,#752,#753,#754,#755,
#756));
#155=EDGE_LOOP('',(#757,#758,#759,#760,#761,#762,#763,#764));
#156=EDGE_LOOP('',(#765,#766,#767,#768));
#157=EDGE_LOOP('',(#769,#770,#771,#772));
#158=EDGE_LOOP('',(#773,#774,#775,#776));
#159=EDGE_LOOP('',(#777,#778,#779,#780));
#160=EDGE_LOOP('',(#781,#782,#783,#784));
#161=EDGE_LOOP('',(#785,#786,#787,#788));
#162=EDGE_LOOP('',(#789,#790,#791,#792));
#163=EDGE_LOOP('',(#793,#794,#795,#796));
#164=EDGE_LOOP('',(#797,#798,#799,#800));
#165=EDGE_LOOP('',(#801,#802,#803,#804));
#166=EDGE_LOOP('',(#805,#806,#807,#808));
#167=EDGE_LOOP('',(#809,#810,#811,#812));
#168=EDGE_LOOP('',(#813,#814,#815,#816));
#169=EDGE_LOOP('',(#817,#818,#819,#820));
#170=EDGE_LOOP('',(#821,#822,#823,#824));
#171=EDGE_LOOP('',(#825,#826,#827,#828));
#172=EDGE_LOOP('',(#829,#830,#831,#832));
#173=EDGE_LOOP('',(#833,#834,#835,#836));
#174=EDGE_LOOP('',(#837,#838,#839,#840));
#175=EDGE_LOOP('',(#841,#842,#843,#844));
#176=EDGE_LOOP('',(#845,#846,#847,#848));
#177=EDGE_LOOP('',(#849,#850,#851,#852));
#178=EDGE_LOOP('',(#853,#854,#855,#856));
#179=EDGE_LOOP('',(#857,#858,#859,#860));
#180=EDGE_LOOP('',(#861,#862,#863,#864));
#181=EDGE_LOOP('',(#865,#866,#867,#868));
#182=EDGE_LOOP('',(#869));
#183=EDGE_LOOP('',(#870,#871,#872,#873,#874,#875));
#184=EDGE_LOOP('',(#876,#877,#878,#879,#880,#881,#882,#883));
#185=EDGE_LOOP('',(#884,#885,#886,#887,#888,#889));
#186=EDGE_LOOP('',(#890,#891,#892,#893));
#187=EDGE_LOOP('',(#894));
#188=EDGE_LOOP('',(#895,#896,#897,#898,#899,#900));
#189=EDGE_LOOP('',(#901,#902,#903,#904));
#190=EDGE_LOOP('',(#905));
#191=EDGE_LOOP('',(#906,#907,#908,#909));
#192=EDGE_LOOP('',(#910));
#193=EDGE_LOOP('',(#911,#912,#913,#914,#915,#916));
#194=EDGE_LOOP('',(#917,#918,#919,#920));
#195=EDGE_LOOP('',(#921,#922,#923,#924));
#196=EDGE_LOOP('',(#925,#926,#927,#928));
#197=EDGE_LOOP('',(#929,#930,#931,#932));
#198=EDGE_LOOP('',(#933,#934,#935,#936));
#199=EDGE_LOOP('',(#937,#938,#939,#940));
#200=LINE('',#1416,#311);
#201=LINE('',#1418,#312);
#202=LINE('',#1420,#313);
#203=LINE('',#1422,#314);
#204=LINE('',#1424,#315);
#205=LINE('',#1425,#316);
#206=LINE('',#1428,#317);
#207=LINE('',#1430,#318);
#208=LINE('',#1432,#319);
#209=LINE('',#1434,#320);
#210=LINE('',#1435,#321);
#211=LINE('',#1438,#322);
#212=LINE('',#1439,#323);
#213=LINE('',#1442,#324);
#214=LINE('',#1444,#325);
#215=LINE('',#1446,#326);
#216=LINE('',#1447,#327);
#217=LINE('',#1450,#328);
#218=LINE('',#1452,#329);
#219=LINE('',#1453,#330);
#220=LINE('',#1456,#331);
#221=LINE('',#1458,#332);
#222=LINE('',#1459,#333);
#223=LINE('',#1462,#334);
#224=LINE('',#1463,#335);
#225=LINE('',#1466,#336);
#226=LINE('',#1467,#337);
#227=LINE('',#1470,#338);
#228=LINE('',#1472,#339);
#229=LINE('',#1473,#340);
#230=LINE('',#1475,#341);
#231=LINE('',#1478,#342);
#232=LINE('',#1480,#343);
#233=LINE('',#1481,#344);
#234=LINE('',#1484,#345);
#235=LINE('',#1486,#346);
#236=LINE('',#1488,#347);
#237=LINE('',#1492,#348);
#238=LINE('',#1496,#349);
#239=LINE('',#1500,#350);
#240=LINE('',#1512,#351);
#241=LINE('',#1513,#352);
#242=LINE('',#1516,#353);
#243=LINE('',#1518,#354);
#244=LINE('',#1519,#355);
#245=LINE('',#1522,#356);
#246=LINE('',#1524,#357);
#247=LINE('',#1525,#358);
#248=LINE('',#1528,#359);
#249=LINE('',#1532,#360);
#250=LINE('',#1536,#361);
#251=LINE('',#1540,#362);
#252=LINE('',#1543,#363);
#253=LINE('',#1546,#364);
#254=LINE('',#1550,#365);
#255=LINE('',#1554,#366);
#256=LINE('',#1558,#367);
#257=LINE('',#1562,#368);
#258=LINE('',#1563,#369);
#259=LINE('',#1566,#370);
#260=LINE('',#1567,#371);
#261=LINE('',#1570,#372);
#262=LINE('',#1572,#373);
#263=LINE('',#1573,#374);
#264=LINE('',#1575,#375);
#265=LINE('',#1577,#376);
#266=LINE('',#1580,#377);
#267=LINE('',#1582,#378);
#268=LINE('',#1586,#379);
#269=LINE('',#1587,#380);
#270=LINE('',#1590,#381);
#271=LINE('',#1594,#382);
#272=LINE('',#1595,#383);
#273=LINE('',#1599,#384);
#274=LINE('',#1602,#385);
#275=LINE('',#1605,#386);
#276=LINE('',#1608,#387);
#277=LINE('',#1610,#388);
#278=LINE('',#1611,#389);
#279=LINE('',#1614,#390);
#280=LINE('',#1618,#391);
#281=LINE('',#1619,#392);
#282=LINE('',#1622,#393);
#283=LINE('',#1625,#394);
#284=LINE('',#1628,#395);
#285=LINE('',#1630,#396);
#286=LINE('',#1632,#397);
#287=LINE('',#1634,#398);
#288=LINE('',#1637,#399);
#289=LINE('',#1638,#400);
#290=LINE('',#1645,#401);
#291=LINE('',#1649,#402);
#292=LINE('',#1653,#403);
#293=LINE('',#1655,#404);
#294=LINE('',#1656,#405);
#295=LINE('',#1657,#406);
#296=LINE('',#1660,#407);
#297=LINE('',#1664,#408);
#298=LINE('',#1668,#409);
#299=LINE('',#1671,#410);
#300=LINE('',#1673,#411);
#301=LINE('',#1674,#412);
#302=LINE('',#1678,#413);
#303=LINE('',#1680,#414);
#304=LINE('',#1682,#415);
#305=LINE('',#1683,#416);
#306=LINE('',#1687,#417);
#307=LINE('',#1690,#418);
#308=LINE('',#1693,#419);
#309=LINE('',#1694,#420);
#310=LINE('',#1700,#421);
#311=VECTOR('',#1127,1.);
#312=VECTOR('',#1128,1.);
#313=VECTOR('',#1129,1.);
#314=VECTOR('',#1130,1.);
#315=VECTOR('',#1131,1.);
#316=VECTOR('',#1132,1.);
#317=VECTOR('',#1135,1.);
#318=VECTOR('',#1136,1.);
#319=VECTOR('',#1137,1.);
#320=VECTOR('',#1138,1.);
#321=VECTOR('',#1139,1.);
#322=VECTOR('',#1142,1.);
#323=VECTOR('',#1143,1.);
#324=VECTOR('',#1146,1.);
#325=VECTOR('',#1147,1.);
#326=VECTOR('',#1148,1.);
#327=VECTOR('',#1149,1.);
#328=VECTOR('',#1152,1.);
#329=VECTOR('',#1153,1.);
#330=VECTOR('',#1154,1.);
#331=VECTOR('',#1157,1.);
#332=VECTOR('',#1158,1.);
#333=VECTOR('',#1159,1.);
#334=VECTOR('',#1162,1.);
#335=VECTOR('',#1163,1.);
#336=VECTOR('',#1166,1.);
#337=VECTOR('',#1167,1.);
#338=VECTOR('',#1170,1.);
#339=VECTOR('',#1171,1.);
#340=VECTOR('',#1172,1.);
#341=VECTOR('',#1175,1.);
#342=VECTOR('',#1178,1.);
#343=VECTOR('',#1179,1.);
#344=VECTOR('',#1180,1.);
#345=VECTOR('',#1183,1.);
#346=VECTOR('',#1184,1.);
#347=VECTOR('',#1185,1.);
#348=VECTOR('',#1188,1.);
#349=VECTOR('',#1191,1.);
#350=VECTOR('',#1194,1.);
#351=VECTOR('',#1207,1.);
#352=VECTOR('',#1208,1.);
#353=VECTOR('',#1211,1.);
#354=VECTOR('',#1212,1.);
#355=VECTOR('',#1213,1.);
#356=VECTOR('',#1216,1.);
#357=VECTOR('',#1217,1.);
#358=VECTOR('',#1218,1.);
#359=VECTOR('',#1221,1.);
#360=VECTOR('',#1224,1.);
#361=VECTOR('',#1227,1.);
#362=VECTOR('',#1230,1.);
#363=VECTOR('',#1233,1.);
#364=VECTOR('',#1234,1.);
#365=VECTOR('',#1237,1.);
#366=VECTOR('',#1240,1.);
#367=VECTOR('',#1243,1.);
#368=VECTOR('',#1248,1.);
#369=VECTOR('',#1249,1.);
#370=VECTOR('',#1252,1.);
#371=VECTOR('',#1253,1.);
#372=VECTOR('',#1256,1.);
#373=VECTOR('',#1257,1.);
#374=VECTOR('',#1258,1.);
#375=VECTOR('',#1261,1.);
#376=VECTOR('',#1264,1.);
#377=VECTOR('',#1267,1.);
#378=VECTOR('',#1268,1.);
#379=VECTOR('',#1273,1.);
#380=VECTOR('',#1274,1.);
#381=VECTOR('',#1277,1.);
#382=VECTOR('',#1282,1.);
#383=VECTOR('',#1283,1.);
#384=VECTOR('',#1290,1.);
#385=VECTOR('',#1293,1.);
#386=VECTOR('',#1298,1.);
#387=VECTOR('',#1301,1.);
#388=VECTOR('',#1302,1.);
#389=VECTOR('',#1303,1.);
#390=VECTOR('',#1306,1.);
#391=VECTOR('',#1311,1.);
#392=VECTOR('',#1312,1.);
#393=VECTOR('',#1315,1.);
#394=VECTOR('',#1320,1.);
#395=VECTOR('',#1325,1.);
#396=VECTOR('',#1328,1.);
#397=VECTOR('',#1331,1.);
#398=VECTOR('',#1334,1.);
#399=VECTOR('',#1337,1.);
#400=VECTOR('',#1338,1.);
#401=VECTOR('',#1347,1.);
#402=VECTOR('',#1350,1.);
#403=VECTOR('',#1355,1.);
#404=VECTOR('',#1356,1.);
#405=VECTOR('',#1357,1.);
#406=VECTOR('',#1358,1.);
#407=VECTOR('',#1361,1.);
#408=VECTOR('',#1364,1.);
#409=VECTOR('',#1367,1.);
#410=VECTOR('',#1372,1.);
#411=VECTOR('',#1373,1.);
#412=VECTOR('',#1374,1.);
#413=VECTOR('',#1379,1.);
#414=VECTOR('',#1382,1.);
#415=VECTOR('',#1383,1.);
#416=VECTOR('',#1384,1.);
#417=VECTOR('',#1389,1.);
#418=VECTOR('',#1392,1.);
#419=VECTOR('',#1397,1.);
#420=VECTOR('',#1398,1.);
#421=VECTOR('',#1409,1.);
#422=VERTEX_POINT('',#1414);
#423=VERTEX_POINT('',#1415);
#424=VERTEX_POINT('',#1417);
#425=VERTEX_POINT('',#1419);
#426=VERTEX_POINT('',#1421);
#427=VERTEX_POINT('',#1423);
#428=VERTEX_POINT('',#1427);
#429=VERTEX_POINT('',#1429);
#430=VERTEX_POINT('',#1431);
#431=VERTEX_POINT('',#1433);
#432=VERTEX_POINT('',#1437);
#433=VERTEX_POINT('',#1441);
#434=VERTEX_POINT('',#1443);
#435=VERTEX_POINT('',#1445);
#436=VERTEX_POINT('',#1449);
#437=VERTEX_POINT('',#1451);
#438=VERTEX_POINT('',#1455);
#439=VERTEX_POINT('',#1457);
#440=VERTEX_POINT('',#1461);
#441=VERTEX_POINT('',#1465);
#442=VERTEX_POINT('',#1469);
#443=VERTEX_POINT('',#1471);
#444=VERTEX_POINT('',#1477);
#445=VERTEX_POINT('',#1479);
#446=VERTEX_POINT('',#1483);
#447=VERTEX_POINT('',#1485);
#448=VERTEX_POINT('',#1487);
#449=VERTEX_POINT('',#1489);
#450=VERTEX_POINT('',#1491);
#451=VERTEX_POINT('',#1493);
#452=VERTEX_POINT('',#1495);
#453=VERTEX_POINT('',#1497);
#454=VERTEX_POINT('',#1499);
#455=VERTEX_POINT('',#1502);
#456=VERTEX_POINT('',#1504);
#457=VERTEX_POINT('',#1506);
#458=VERTEX_POINT('',#1508);
#459=VERTEX_POINT('',#1511);
#460=VERTEX_POINT('',#1515);
#461=VERTEX_POINT('',#1517);
#462=VERTEX_POINT('',#1521);
#463=VERTEX_POINT('',#1523);
#464=VERTEX_POINT('',#1527);
#465=VERTEX_POINT('',#1529);
#466=VERTEX_POINT('',#1531);
#467=VERTEX_POINT('',#1533);
#468=VERTEX_POINT('',#1535);
#469=VERTEX_POINT('',#1537);
#470=VERTEX_POINT('',#1539);
#471=VERTEX_POINT('',#1541);
#472=VERTEX_POINT('',#1544);
#473=VERTEX_POINT('',#1545);
#474=VERTEX_POINT('',#1547);
#475=VERTEX_POINT('',#1549);
#476=VERTEX_POINT('',#1551);
#477=VERTEX_POINT('',#1553);
#478=VERTEX_POINT('',#1555);
#479=VERTEX_POINT('',#1557);
#480=VERTEX_POINT('',#1561);
#481=VERTEX_POINT('',#1565);
#482=VERTEX_POINT('',#1569);
#483=VERTEX_POINT('',#1571);
#484=VERTEX_POINT('',#1579);
#485=VERTEX_POINT('',#1581);
#486=VERTEX_POINT('',#1585);
#487=VERTEX_POINT('',#1589);
#488=VERTEX_POINT('',#1593);
#489=VERTEX_POINT('',#1601);
#490=VERTEX_POINT('',#1607);
#491=VERTEX_POINT('',#1609);
#492=VERTEX_POINT('',#1613);
#493=VERTEX_POINT('',#1617);
#494=VERTEX_POINT('',#1621);
#495=VERTEX_POINT('',#1636);
#496=VERTEX_POINT('',#1643);
#497=VERTEX_POINT('',#1644);
#498=VERTEX_POINT('',#1646);
#499=VERTEX_POINT('',#1648);
#500=VERTEX_POINT('',#1652);
#501=VERTEX_POINT('',#1654);
#502=VERTEX_POINT('',#1659);
#503=VERTEX_POINT('',#1661);
#504=VERTEX_POINT('',#1663);
#505=VERTEX_POINT('',#1665);
#506=VERTEX_POINT('',#1667);
#507=VERTEX_POINT('',#1672);
#508=VERTEX_POINT('',#1676);
#509=VERTEX_POINT('',#1681);
#510=VERTEX_POINT('',#1685);
#511=VERTEX_POINT('',#1689);
#512=EDGE_CURVE('',#422,#423,#200,.T.);
#513=EDGE_CURVE('',#423,#424,#201,.T.);
#514=EDGE_CURVE('',#424,#425,#202,.T.);
#515=EDGE_CURVE('',#425,#426,#203,.T.);
#516=EDGE_CURVE('',#426,#427,#204,.T.);
#517=EDGE_CURVE('',#427,#422,#205,.T.);
#518=EDGE_CURVE('',#424,#428,#206,.T.);
#519=EDGE_CURVE('',#429,#428,#207,.T.);
#520=EDGE_CURVE('',#430,#429,#208,.T.);
#521=EDGE_CURVE('',#430,#431,#209,.T.);
#522=EDGE_CURVE('',#425,#431,#210,.T.);
#523=EDGE_CURVE('',#432,#423,#211,.T.);
#524=EDGE_CURVE('',#428,#432,#212,.T.);
#525=EDGE_CURVE('',#422,#433,#213,.T.);
#526=EDGE_CURVE('',#433,#434,#214,.T.);
#527=EDGE_CURVE('',#434,#435,#215,.T.);
#528=EDGE_CURVE('',#432,#435,#216,.T.);
#529=EDGE_CURVE('',#435,#436,#217,.T.);
#530=EDGE_CURVE('',#436,#437,#218,.T.);
#531=EDGE_CURVE('',#437,#429,#219,.T.);
#532=EDGE_CURVE('',#438,#433,#220,.T.);
#533=EDGE_CURVE('',#439,#438,#221,.T.);
#534=EDGE_CURVE('',#434,#439,#222,.T.);
#535=EDGE_CURVE('',#427,#440,#223,.T.);
#536=EDGE_CURVE('',#438,#440,#224,.T.);
#537=EDGE_CURVE('',#440,#441,#225,.T.);
#538=EDGE_CURVE('',#441,#439,#226,.T.);
#539=EDGE_CURVE('',#440,#442,#227,.T.);
#540=EDGE_CURVE('',#443,#442,#228,.T.);
#541=EDGE_CURVE('',#443,#441,#229,.T.);
#542=EDGE_CURVE('',#441,#436,#230,.T.);
#543=EDGE_CURVE('',#431,#444,#231,.T.);
#544=EDGE_CURVE('',#444,#445,#232,.F.);
#545=EDGE_CURVE('',#445,#426,#233,.T.);
#546=EDGE_CURVE('',#444,#446,#234,.T.);
#547=EDGE_CURVE('',#447,#430,#235,.T.);
#548=EDGE_CURVE('',#448,#447,#236,.T.);
#549=EDGE_CURVE('',#449,#448,#47,.T.);
#550=EDGE_CURVE('',#450,#449,#237,.T.);
#551=EDGE_CURVE('',#451,#450,#48,.T.);
#552=EDGE_CURVE('',#452,#451,#238,.T.);
#553=EDGE_CURVE('',#453,#452,#49,.T.);
#554=EDGE_CURVE('',#454,#453,#239,.T.);
#555=EDGE_CURVE('',#446,#454,#50,.T.);
#556=EDGE_CURVE('',#455,#455,#51,.T.);
#557=EDGE_CURVE('',#456,#456,#52,.T.);
#558=EDGE_CURVE('',#457,#457,#53,.T.);
#559=EDGE_CURVE('',#458,#458,#54,.T.);
#560=EDGE_CURVE('',#437,#459,#240,.T.);
#561=EDGE_CURVE('',#459,#447,#241,.F.);
#562=EDGE_CURVE('',#460,#443,#242,.T.);
#563=EDGE_CURVE('',#461,#460,#243,.T.);
#564=EDGE_CURVE('',#459,#461,#244,.T.);
#565=EDGE_CURVE('',#462,#445,#245,.T.);
#566=EDGE_CURVE('',#463,#462,#246,.T.);
#567=EDGE_CURVE('',#442,#463,#247,.T.);
#568=EDGE_CURVE('',#464,#463,#248,.T.);
#569=EDGE_CURVE('',#465,#464,#55,.T.);
#570=EDGE_CURVE('',#466,#465,#249,.T.);
#571=EDGE_CURVE('',#467,#466,#56,.T.);
#572=EDGE_CURVE('',#468,#467,#250,.T.);
#573=EDGE_CURVE('',#469,#468,#57,.T.);
#574=EDGE_CURVE('',#470,#469,#251,.T.);
#575=EDGE_CURVE('',#471,#470,#58,.T.);
#576=EDGE_CURVE('',#460,#471,#252,.T.);
#577=EDGE_CURVE('',#472,#473,#253,.T.);
#578=EDGE_CURVE('',#473,#474,#59,.T.);
#579=EDGE_CURVE('',#474,#475,#254,.T.);
#580=EDGE_CURVE('',#475,#476,#60,.T.);
#581=EDGE_CURVE('',#476,#477,#255,.T.);
#582=EDGE_CURVE('',#477,#478,#61,.T.);
#583=EDGE_CURVE('',#478,#479,#256,.T.);
#584=EDGE_CURVE('',#479,#472,#62,.T.);
#585=EDGE_CURVE('',#480,#446,#257,.T.);
#586=EDGE_CURVE('',#480,#445,#258,.T.);
#587=EDGE_CURVE('',#480,#481,#259,.T.);
#588=EDGE_CURVE('',#462,#481,#260,.T.);
#589=EDGE_CURVE('',#482,#461,#261,.T.);
#590=EDGE_CURVE('',#483,#482,#262,.T.);
#591=EDGE_CURVE('',#459,#483,#263,.T.);
#592=EDGE_CURVE('',#481,#464,#264,.T.);
#593=EDGE_CURVE('',#471,#482,#265,.T.);
#594=EDGE_CURVE('',#484,#451,#266,.T.);
#595=EDGE_CURVE('',#450,#485,#267,.T.);
#596=EDGE_CURVE('',#485,#484,#63,.T.);
#597=EDGE_CURVE('',#484,#486,#268,.T.);
#598=EDGE_CURVE('',#486,#452,#269,.T.);
#599=EDGE_CURVE('',#487,#453,#270,.T.);
#600=EDGE_CURVE('',#486,#487,#64,.T.);
#601=EDGE_CURVE('',#487,#488,#271,.T.);
#602=EDGE_CURVE('',#488,#454,#272,.T.);
#603=EDGE_CURVE('',#488,#480,#65,.T.);
#604=EDGE_CURVE('',#483,#448,#273,.T.);
#605=EDGE_CURVE('',#489,#449,#274,.T.);
#606=EDGE_CURVE('',#483,#489,#66,.T.);
#607=EDGE_CURVE('',#489,#485,#275,.T.);
#608=EDGE_CURVE('',#487,#490,#276,.T.);
#609=EDGE_CURVE('',#491,#490,#277,.T.);
#610=EDGE_CURVE('',#488,#491,#278,.T.);
#611=EDGE_CURVE('',#486,#492,#279,.T.);
#612=EDGE_CURVE('',#490,#492,#67,.T.);
#613=EDGE_CURVE('',#484,#493,#280,.T.);
#614=EDGE_CURVE('',#492,#493,#281,.T.);
#615=EDGE_CURVE('',#485,#494,#282,.T.);
#616=EDGE_CURVE('',#493,#494,#68,.T.);
#617=EDGE_CURVE('',#491,#465,#283,.T.);
#618=EDGE_CURVE('',#481,#491,#69,.T.);
#619=EDGE_CURVE('',#490,#466,#284,.T.);
#620=EDGE_CURVE('',#492,#467,#285,.T.);
#621=EDGE_CURVE('',#493,#468,#286,.T.);
#622=EDGE_CURVE('',#494,#469,#287,.T.);
#623=EDGE_CURVE('',#495,#470,#288,.T.);
#624=EDGE_CURVE('',#494,#495,#289,.T.);
#625=EDGE_CURVE('',#495,#482,#70,.T.);
#626=EDGE_CURVE('',#496,#497,#290,.T.);
#627=EDGE_CURVE('',#497,#498,#71,.T.);
#628=EDGE_CURVE('',#498,#499,#291,.T.);
#629=EDGE_CURVE('',#499,#496,#72,.T.);
#630=EDGE_CURVE('',#496,#500,#292,.T.);
#631=EDGE_CURVE('',#501,#500,#293,.T.);
#632=EDGE_CURVE('',#477,#501,#294,.T.);
#633=EDGE_CURVE('',#497,#476,#295,.T.);
#634=EDGE_CURVE('',#502,#499,#296,.T.);
#635=EDGE_CURVE('',#503,#502,#73,.T.);
#636=EDGE_CURVE('',#504,#503,#297,.T.);
#637=EDGE_CURVE('',#505,#504,#74,.T.);
#638=EDGE_CURVE('',#506,#505,#298,.T.);
#639=EDGE_CURVE('',#500,#506,#75,.T.);
#640=EDGE_CURVE('',#475,#498,#299,.T.);
#641=EDGE_CURVE('',#507,#474,#300,.T.);
#642=EDGE_CURVE('',#502,#507,#301,.T.);
#643=EDGE_CURVE('',#507,#508,#76,.T.);
#644=EDGE_CURVE('',#508,#503,#302,.T.);
#645=EDGE_CURVE('',#473,#508,#303,.T.);
#646=EDGE_CURVE('',#509,#472,#304,.T.);
#647=EDGE_CURVE('',#504,#509,#305,.T.);
#648=EDGE_CURVE('',#509,#510,#77,.T.);
#649=EDGE_CURVE('',#510,#505,#306,.T.);
#650=EDGE_CURVE('',#506,#511,#307,.T.);
#651=EDGE_CURVE('',#511,#501,#78,.T.);
#652=EDGE_CURVE('',#479,#510,#308,.T.);
#653=EDGE_CURVE('',#511,#478,#309,.T.);
#654=EDGE_CURVE('',#489,#495,#310,.T.);
#655=ORIENTED_EDGE('',*,*,#512,.T.);
#656=ORIENTED_EDGE('',*,*,#513,.T.);
#657=ORIENTED_EDGE('',*,*,#514,.T.);
#658=ORIENTED_EDGE('',*,*,#515,.T.);
#659=ORIENTED_EDGE('',*,*,#516,.T.);
#660=ORIENTED_EDGE('',*,*,#517,.T.);
#661=ORIENTED_EDGE('',*,*,#514,.F.);
#662=ORIENTED_EDGE('',*,*,#518,.T.);
#663=ORIENTED_EDGE('',*,*,#519,.F.);
#664=ORIENTED_EDGE('',*,*,#520,.F.);
#665=ORIENTED_EDGE('',*,*,#521,.T.);
#666=ORIENTED_EDGE('',*,*,#522,.F.);
#667=ORIENTED_EDGE('',*,*,#513,.F.);
#668=ORIENTED_EDGE('',*,*,#523,.F.);
#669=ORIENTED_EDGE('',*,*,#524,.F.);
#670=ORIENTED_EDGE('',*,*,#518,.F.);
#671=ORIENTED_EDGE('',*,*,#512,.F.);
#672=ORIENTED_EDGE('',*,*,#525,.T.);
#673=ORIENTED_EDGE('',*,*,#526,.T.);
#674=ORIENTED_EDGE('',*,*,#527,.T.);
#675=ORIENTED_EDGE('',*,*,#528,.F.);
#676=ORIENTED_EDGE('',*,*,#523,.T.);
#677=ORIENTED_EDGE('',*,*,#519,.T.);
#678=ORIENTED_EDGE('',*,*,#524,.T.);
#679=ORIENTED_EDGE('',*,*,#528,.T.);
#680=ORIENTED_EDGE('',*,*,#529,.T.);
#681=ORIENTED_EDGE('',*,*,#530,.T.);
#682=ORIENTED_EDGE('',*,*,#531,.T.);
#683=ORIENTED_EDGE('',*,*,#526,.F.);
#684=ORIENTED_EDGE('',*,*,#532,.F.);
#685=ORIENTED_EDGE('',*,*,#533,.F.);
#686=ORIENTED_EDGE('',*,*,#534,.F.);
#687=ORIENTED_EDGE('',*,*,#517,.F.);
#688=ORIENTED_EDGE('',*,*,#535,.T.);
#689=ORIENTED_EDGE('',*,*,#536,.F.);
#690=ORIENTED_EDGE('',*,*,#532,.T.);
#691=ORIENTED_EDGE('',*,*,#525,.F.);
#692=ORIENTED_EDGE('',*,*,#536,.T.);
#693=ORIENTED_EDGE('',*,*,#537,.T.);
#694=ORIENTED_EDGE('',*,*,#538,.T.);
#695=ORIENTED_EDGE('',*,*,#533,.T.);
#696=ORIENTED_EDGE('',*,*,#537,.F.);
#697=ORIENTED_EDGE('',*,*,#539,.T.);
#698=ORIENTED_EDGE('',*,*,#540,.F.);
#699=ORIENTED_EDGE('',*,*,#541,.T.);
#700=ORIENTED_EDGE('',*,*,#529,.F.);
#701=ORIENTED_EDGE('',*,*,#527,.F.);
#702=ORIENTED_EDGE('',*,*,#534,.T.);
#703=ORIENTED_EDGE('',*,*,#538,.F.);
#704=ORIENTED_EDGE('',*,*,#542,.T.);
#705=ORIENTED_EDGE('',*,*,#515,.F.);
#706=ORIENTED_EDGE('',*,*,#522,.T.);
#707=ORIENTED_EDGE('',*,*,#543,.T.);
#708=ORIENTED_EDGE('',*,*,#544,.T.);
#709=ORIENTED_EDGE('',*,*,#545,.T.);
#710=ORIENTED_EDGE('',*,*,#546,.F.);
#711=ORIENTED_EDGE('',*,*,#543,.F.);
#712=ORIENTED_EDGE('',*,*,#521,.F.);
#713=ORIENTED_EDGE('',*,*,#547,.F.);
#714=ORIENTED_EDGE('',*,*,#548,.F.);
#715=ORIENTED_EDGE('',*,*,#549,.F.);
#716=ORIENTED_EDGE('',*,*,#550,.F.);
#717=ORIENTED_EDGE('',*,*,#551,.F.);
#718=ORIENTED_EDGE('',*,*,#552,.F.);
#719=ORIENTED_EDGE('',*,*,#553,.F.);
#720=ORIENTED_EDGE('',*,*,#554,.F.);
#721=ORIENTED_EDGE('',*,*,#555,.F.);
#722=ORIENTED_EDGE('',*,*,#556,.F.);
#723=ORIENTED_EDGE('',*,*,#557,.F.);
#724=ORIENTED_EDGE('',*,*,#558,.F.);
#725=ORIENTED_EDGE('',*,*,#559,.F.);
#726=ORIENTED_EDGE('',*,*,#531,.F.);
#727=ORIENTED_EDGE('',*,*,#560,.T.);
#728=ORIENTED_EDGE('',*,*,#561,.T.);
#729=ORIENTED_EDGE('',*,*,#547,.T.);
#730=ORIENTED_EDGE('',*,*,#520,.T.);
#731=ORIENTED_EDGE('',*,*,#530,.F.);
#732=ORIENTED_EDGE('',*,*,#542,.F.);
#733=ORIENTED_EDGE('',*,*,#541,.F.);
#734=ORIENTED_EDGE('',*,*,#562,.F.);
#735=ORIENTED_EDGE('',*,*,#563,.F.);
#736=ORIENTED_EDGE('',*,*,#564,.F.);
#737=ORIENTED_EDGE('',*,*,#560,.F.);
#738=ORIENTED_EDGE('',*,*,#516,.F.);
#739=ORIENTED_EDGE('',*,*,#545,.F.);
#740=ORIENTED_EDGE('',*,*,#565,.F.);
#741=ORIENTED_EDGE('',*,*,#566,.F.);
#742=ORIENTED_EDGE('',*,*,#567,.F.);
#743=ORIENTED_EDGE('',*,*,#539,.F.);
#744=ORIENTED_EDGE('',*,*,#535,.F.);
#745=ORIENTED_EDGE('',*,*,#562,.T.);
#746=ORIENTED_EDGE('',*,*,#540,.T.);
#747=ORIENTED_EDGE('',*,*,#567,.T.);
#748=ORIENTED_EDGE('',*,*,#568,.F.);
#749=ORIENTED_EDGE('',*,*,#569,.F.);
#750=ORIENTED_EDGE('',*,*,#570,.F.);
#751=ORIENTED_EDGE('',*,*,#571,.F.);
#752=ORIENTED_EDGE('',*,*,#572,.F.);
#753=ORIENTED_EDGE('',*,*,#573,.F.);
#754=ORIENTED_EDGE('',*,*,#574,.F.);
#755=ORIENTED_EDGE('',*,*,#575,.F.);
#756=ORIENTED_EDGE('',*,*,#576,.F.);
#757=ORIENTED_EDGE('',*,*,#577,.T.);
#758=ORIENTED_EDGE('',*,*,#578,.T.);
#759=ORIENTED_EDGE('',*,*,#579,.T.);
#760=ORIENTED_EDGE('',*,*,#580,.T.);
#761=ORIENTED_EDGE('',*,*,#581,.T.);
#762=ORIENTED_EDGE('',*,*,#582,.T.);
#763=ORIENTED_EDGE('',*,*,#583,.T.);
#764=ORIENTED_EDGE('',*,*,#584,.T.);
#765=ORIENTED_EDGE('',*,*,#546,.T.);
#766=ORIENTED_EDGE('',*,*,#585,.F.);
#767=ORIENTED_EDGE('',*,*,#586,.T.);
#768=ORIENTED_EDGE('',*,*,#544,.F.);
#769=ORIENTED_EDGE('',*,*,#565,.T.);
#770=ORIENTED_EDGE('',*,*,#586,.F.);
#771=ORIENTED_EDGE('',*,*,#587,.T.);
#772=ORIENTED_EDGE('',*,*,#588,.F.);
#773=ORIENTED_EDGE('',*,*,#564,.T.);
#774=ORIENTED_EDGE('',*,*,#589,.F.);
#775=ORIENTED_EDGE('',*,*,#590,.F.);
#776=ORIENTED_EDGE('',*,*,#591,.F.);
#777=ORIENTED_EDGE('',*,*,#566,.T.);
#778=ORIENTED_EDGE('',*,*,#588,.T.);
#779=ORIENTED_EDGE('',*,*,#592,.T.);
#780=ORIENTED_EDGE('',*,*,#568,.T.);
#781=ORIENTED_EDGE('',*,*,#563,.T.);
#782=ORIENTED_EDGE('',*,*,#576,.T.);
#783=ORIENTED_EDGE('',*,*,#593,.T.);
#784=ORIENTED_EDGE('',*,*,#589,.T.);
#785=ORIENTED_EDGE('',*,*,#594,.T.);
#786=ORIENTED_EDGE('',*,*,#551,.T.);
#787=ORIENTED_EDGE('',*,*,#595,.T.);
#788=ORIENTED_EDGE('',*,*,#596,.T.);
#789=ORIENTED_EDGE('',*,*,#594,.F.);
#790=ORIENTED_EDGE('',*,*,#597,.T.);
#791=ORIENTED_EDGE('',*,*,#598,.T.);
#792=ORIENTED_EDGE('',*,*,#552,.T.);
#793=ORIENTED_EDGE('',*,*,#599,.T.);
#794=ORIENTED_EDGE('',*,*,#553,.T.);
#795=ORIENTED_EDGE('',*,*,#598,.F.);
#796=ORIENTED_EDGE('',*,*,#600,.T.);
#797=ORIENTED_EDGE('',*,*,#599,.F.);
#798=ORIENTED_EDGE('',*,*,#601,.T.);
#799=ORIENTED_EDGE('',*,*,#602,.T.);
#800=ORIENTED_EDGE('',*,*,#554,.T.);
#801=ORIENTED_EDGE('',*,*,#585,.T.);
#802=ORIENTED_EDGE('',*,*,#555,.T.);
#803=ORIENTED_EDGE('',*,*,#602,.F.);
#804=ORIENTED_EDGE('',*,*,#603,.T.);
#805=ORIENTED_EDGE('',*,*,#591,.T.);
#806=ORIENTED_EDGE('',*,*,#604,.T.);
#807=ORIENTED_EDGE('',*,*,#548,.T.);
#808=ORIENTED_EDGE('',*,*,#561,.F.);
#809=ORIENTED_EDGE('',*,*,#605,.T.);
#810=ORIENTED_EDGE('',*,*,#549,.T.);
#811=ORIENTED_EDGE('',*,*,#604,.F.);
#812=ORIENTED_EDGE('',*,*,#606,.T.);
#813=ORIENTED_EDGE('',*,*,#605,.F.);
#814=ORIENTED_EDGE('',*,*,#607,.T.);
#815=ORIENTED_EDGE('',*,*,#595,.F.);
#816=ORIENTED_EDGE('',*,*,#550,.T.);
#817=ORIENTED_EDGE('',*,*,#601,.F.);
#818=ORIENTED_EDGE('',*,*,#608,.T.);
#819=ORIENTED_EDGE('',*,*,#609,.F.);
#820=ORIENTED_EDGE('',*,*,#610,.F.);
#821=ORIENTED_EDGE('',*,*,#600,.F.);
#822=ORIENTED_EDGE('',*,*,#611,.T.);
#823=ORIENTED_EDGE('',*,*,#612,.F.);
#824=ORIENTED_EDGE('',*,*,#608,.F.);
#825=ORIENTED_EDGE('',*,*,#597,.F.);
#826=ORIENTED_EDGE('',*,*,#613,.T.);
#827=ORIENTED_EDGE('',*,*,#614,.F.);
#828=ORIENTED_EDGE('',*,*,#611,.F.);
#829=ORIENTED_EDGE('',*,*,#596,.F.);
#830=ORIENTED_EDGE('',*,*,#615,.T.);
#831=ORIENTED_EDGE('',*,*,#616,.F.);
#832=ORIENTED_EDGE('',*,*,#613,.F.);
#833=ORIENTED_EDGE('',*,*,#617,.T.);
#834=ORIENTED_EDGE('',*,*,#569,.T.);
#835=ORIENTED_EDGE('',*,*,#592,.F.);
#836=ORIENTED_EDGE('',*,*,#618,.T.);
#837=ORIENTED_EDGE('',*,*,#619,.T.);
#838=ORIENTED_EDGE('',*,*,#570,.T.);
#839=ORIENTED_EDGE('',*,*,#617,.F.);
#840=ORIENTED_EDGE('',*,*,#609,.T.);
#841=ORIENTED_EDGE('',*,*,#620,.T.);
#842=ORIENTED_EDGE('',*,*,#571,.T.);
#843=ORIENTED_EDGE('',*,*,#619,.F.);
#844=ORIENTED_EDGE('',*,*,#612,.T.);
#845=ORIENTED_EDGE('',*,*,#621,.T.);
#846=ORIENTED_EDGE('',*,*,#572,.T.);
#847=ORIENTED_EDGE('',*,*,#620,.F.);
#848=ORIENTED_EDGE('',*,*,#614,.T.);
#849=ORIENTED_EDGE('',*,*,#622,.T.);
#850=ORIENTED_EDGE('',*,*,#573,.T.);
#851=ORIENTED_EDGE('',*,*,#621,.F.);
#852=ORIENTED_EDGE('',*,*,#616,.T.);
#853=ORIENTED_EDGE('',*,*,#623,.T.);
#854=ORIENTED_EDGE('',*,*,#574,.T.);
#855=ORIENTED_EDGE('',*,*,#622,.F.);
#856=ORIENTED_EDGE('',*,*,#624,.T.);
#857=ORIENTED_EDGE('',*,*,#593,.F.);
#858=ORIENTED_EDGE('',*,*,#575,.T.);
#859=ORIENTED_EDGE('',*,*,#623,.F.);
#860=ORIENTED_EDGE('',*,*,#625,.T.);
#861=ORIENTED_EDGE('',*,*,#603,.F.);
#862=ORIENTED_EDGE('',*,*,#610,.T.);
#863=ORIENTED_EDGE('',*,*,#618,.F.);
#864=ORIENTED_EDGE('',*,*,#587,.F.);
#865=ORIENTED_EDGE('',*,*,#626,.T.);
#866=ORIENTED_EDGE('',*,*,#627,.T.);
#867=ORIENTED_EDGE('',*,*,#628,.T.);
#868=ORIENTED_EDGE('',*,*,#629,.T.);
#869=ORIENTED_EDGE('',*,*,#556,.T.);
#870=ORIENTED_EDGE('',*,*,#626,.F.);
#871=ORIENTED_EDGE('',*,*,#630,.T.);
#872=ORIENTED_EDGE('',*,*,#631,.F.);
#873=ORIENTED_EDGE('',*,*,#632,.F.);
#874=ORIENTED_EDGE('',*,*,#581,.F.);
#875=ORIENTED_EDGE('',*,*,#633,.F.);
#876=ORIENTED_EDGE('',*,*,#629,.F.);
#877=ORIENTED_EDGE('',*,*,#634,.F.);
#878=ORIENTED_EDGE('',*,*,#635,.F.);
#879=ORIENTED_EDGE('',*,*,#636,.F.);
#880=ORIENTED_EDGE('',*,*,#637,.F.);
#881=ORIENTED_EDGE('',*,*,#638,.F.);
#882=ORIENTED_EDGE('',*,*,#639,.F.);
#883=ORIENTED_EDGE('',*,*,#630,.F.);
#884=ORIENTED_EDGE('',*,*,#628,.F.);
#885=ORIENTED_EDGE('',*,*,#640,.F.);
#886=ORIENTED_EDGE('',*,*,#579,.F.);
#887=ORIENTED_EDGE('',*,*,#641,.F.);
#888=ORIENTED_EDGE('',*,*,#642,.F.);
#889=ORIENTED_EDGE('',*,*,#634,.T.);
#890=ORIENTED_EDGE('',*,*,#642,.T.);
#891=ORIENTED_EDGE('',*,*,#643,.T.);
#892=ORIENTED_EDGE('',*,*,#644,.T.);
#893=ORIENTED_EDGE('',*,*,#635,.T.);
#894=ORIENTED_EDGE('',*,*,#559,.T.);
#895=ORIENTED_EDGE('',*,*,#644,.F.);
#896=ORIENTED_EDGE('',*,*,#645,.F.);
#897=ORIENTED_EDGE('',*,*,#577,.F.);
#898=ORIENTED_EDGE('',*,*,#646,.F.);
#899=ORIENTED_EDGE('',*,*,#647,.F.);
#900=ORIENTED_EDGE('',*,*,#636,.T.);
#901=ORIENTED_EDGE('',*,*,#647,.T.);
#902=ORIENTED_EDGE('',*,*,#648,.T.);
#903=ORIENTED_EDGE('',*,*,#649,.T.);
#904=ORIENTED_EDGE('',*,*,#637,.T.);
#905=ORIENTED_EDGE('',*,*,#557,.T.);
#906=ORIENTED_EDGE('',*,*,#650,.T.);
#907=ORIENTED_EDGE('',*,*,#651,.T.);
#908=ORIENTED_EDGE('',*,*,#631,.T.);
#909=ORIENTED_EDGE('',*,*,#639,.T.);
#910=ORIENTED_EDGE('',*,*,#558,.T.);
#911=ORIENTED_EDGE('',*,*,#649,.F.);
#912=ORIENTED_EDGE('',*,*,#652,.F.);
#913=ORIENTED_EDGE('',*,*,#583,.F.);
#914=ORIENTED_EDGE('',*,*,#653,.F.);
#915=ORIENTED_EDGE('',*,*,#650,.F.);
#916=ORIENTED_EDGE('',*,*,#638,.T.);
#917=ORIENTED_EDGE('',*,*,#643,.F.);
#918=ORIENTED_EDGE('',*,*,#641,.T.);
#919=ORIENTED_EDGE('',*,*,#578,.F.);
#920=ORIENTED_EDGE('',*,*,#645,.T.);
#921=ORIENTED_EDGE('',*,*,#627,.F.);
#922=ORIENTED_EDGE('',*,*,#633,.T.);
#923=ORIENTED_EDGE('',*,*,#580,.F.);
#924=ORIENTED_EDGE('',*,*,#640,.T.);
#925=ORIENTED_EDGE('',*,*,#651,.F.);
#926=ORIENTED_EDGE('',*,*,#653,.T.);
#927=ORIENTED_EDGE('',*,*,#582,.F.);
#928=ORIENTED_EDGE('',*,*,#632,.T.);
#929=ORIENTED_EDGE('',*,*,#648,.F.);
#930=ORIENTED_EDGE('',*,*,#646,.T.);
#931=ORIENTED_EDGE('',*,*,#584,.F.);
#932=ORIENTED_EDGE('',*,*,#652,.T.);
#933=ORIENTED_EDGE('',*,*,#606,.F.);
#934=ORIENTED_EDGE('',*,*,#590,.T.);
#935=ORIENTED_EDGE('',*,*,#625,.F.);
#936=ORIENTED_EDGE('',*,*,#654,.F.);
#937=ORIENTED_EDGE('',*,*,#607,.F.);
#938=ORIENTED_EDGE('',*,*,#654,.T.);
#939=ORIENTED_EDGE('',*,*,#624,.F.);
#940=ORIENTED_EDGE('',*,*,#615,.F.);
#941=PLANE('',#1035);
#942=PLANE('',#1036);
#943=PLANE('',#1037);
#944=PLANE('',#1038);
#945=PLANE('',#1039);
#946=PLANE('',#1040);
#947=PLANE('',#1041);
#948=PLANE('',#1042);
#949=PLANE('',#1043);
#950=PLANE('',#1044);
#951=PLANE('',#1045);
#952=PLANE('',#1046);
#953=PLANE('',#1055);
#954=PLANE('',#1056);
#955=PLANE('',#1057);
#956=PLANE('',#1058);
#957=PLANE('',#1067);
#958=PLANE('',#1068);
#959=PLANE('',#1069);
#960=PLANE('',#1070);
#961=PLANE('',#1071);
#962=PLANE('',#1074);
#963=PLANE('',#1077);
#964=PLANE('',#1080);
#965=PLANE('',#1083);
#966=PLANE('',#1084);
#967=PLANE('',#1087);
#968=PLANE('',#1092);
#969=PLANE('',#1094);
#970=PLANE('',#1096);
#971=PLANE('',#1103);
#972=PLANE('',#1104);
#973=PLANE('',#1108);
#974=PLANE('',#1111);
#975=PLANE('',#1116);
#976=PLANE('',#1122);
#977=ADVANCED_FACE('',(#79),#941,.T.);
#978=ADVANCED_FACE('',(#80),#942,.T.);
#979=ADVANCED_FACE('',(#81),#943,.T.);
#980=ADVANCED_FACE('',(#82),#944,.T.);
#981=ADVANCED_FACE('',(#83),#945,.T.);
#982=ADVANCED_FACE('',(#84),#946,.T.);
#983=ADVANCED_FACE('',(#85),#947,.T.);
#984=ADVANCED_FACE('',(#86),#948,.T.);
#985=ADVANCED_FACE('',(#87),#949,.F.);
#986=ADVANCED_FACE('',(#88),#950,.T.);
#987=ADVANCED_FACE('',(#89),#951,.T.);
#988=ADVANCED_FACE('',(#90,#38,#39,#40,#41),#952,.T.);
#989=ADVANCED_FACE('',(#91),#953,.T.);
#990=ADVANCED_FACE('',(#92),#954,.T.);
#991=ADVANCED_FACE('',(#93),#955,.T.);
#992=ADVANCED_FACE('',(#94,#42),#956,.F.);
#993=ADVANCED_FACE('',(#95),#957,.T.);
#994=ADVANCED_FACE('',(#96),#958,.T.);
#995=ADVANCED_FACE('',(#97),#959,.T.);
#996=ADVANCED_FACE('',(#98),#960,.T.);
#997=ADVANCED_FACE('',(#99),#961,.T.);
#998=ADVANCED_FACE('',(#100),#26,.T.);
#999=ADVANCED_FACE('',(#101),#962,.T.);
#1000=ADVANCED_FACE('',(#102),#27,.T.);
#1001=ADVANCED_FACE('',(#103),#963,.T.);
#1002=ADVANCED_FACE('',(#104),#28,.T.);
#1003=ADVANCED_FACE('',(#105),#964,.T.);
#1004=ADVANCED_FACE('',(#106),#29,.T.);
#1005=ADVANCED_FACE('',(#107),#965,.T.);
#1006=ADVANCED_FACE('',(#108),#966,.T.);
#1007=ADVANCED_FACE('',(#109),#18,.T.);
#1008=ADVANCED_FACE('',(#110),#967,.T.);
#1009=ADVANCED_FACE('',(#111),#19,.T.);
#1010=ADVANCED_FACE('',(#112),#30,.T.);
#1011=ADVANCED_FACE('',(#113),#968,.T.);
#1012=ADVANCED_FACE('',(#114),#31,.T.);
#1013=ADVANCED_FACE('',(#115),#969,.T.);
#1014=ADVANCED_FACE('',(#116),#32,.T.);
#1015=ADVANCED_FACE('',(#117),#970,.T.);
#1016=ADVANCED_FACE('',(#118),#33,.T.);
#1017=ADVANCED_FACE('',(#119),#20,.T.);
#1018=ADVANCED_FACE('',(#120,#43),#34,.F.);
#1019=ADVANCED_FACE('',(#121),#971,.F.);
#1020=ADVANCED_FACE('',(#122),#972,.T.);
#1021=ADVANCED_FACE('',(#123),#973,.F.);
#1022=ADVANCED_FACE('',(#124,#44),#35,.F.);
#1023=ADVANCED_FACE('',(#125),#974,.F.);
#1024=ADVANCED_FACE('',(#126,#45),#36,.F.);
#1025=ADVANCED_FACE('',(#127,#46),#37,.F.);
#1026=ADVANCED_FACE('',(#128),#975,.F.);
#1027=ADVANCED_FACE('',(#129),#21,.F.);
#1028=ADVANCED_FACE('',(#130),#22,.F.);
#1029=ADVANCED_FACE('',(#131),#23,.F.);
#1030=ADVANCED_FACE('',(#132),#24,.F.);
#1031=ADVANCED_FACE('',(#133),#25,.T.);
#1032=ADVANCED_FACE('',(#134),#976,.T.);
#1033=CLOSED_SHELL('',(#977,#978,#979,#980,#981,#982,#983,#984,#985,#986,
#987,#988,#989,#990,#991,#992,#993,#994,#995,#996,#997,#998,#999,#1000,
#1001,#1002,#1003,#1004,#1005,#1006,#1007,#1008,#1009,#1010,#1011,#1012,
#1013,#1014,#1015,#1016,#1017,#1018,#1019,#1020,#1021,#1022,#1023,#1024,
#1025,#1026,#1027,#1028,#1029,#1030,#1031,#1032));
#1034=AXIS2_PLACEMENT_3D('placement',#1412,#1123,#1124);
#1035=AXIS2_PLACEMENT_3D('',#1413,#1125,#1126);
#1036=AXIS2_PLACEMENT_3D('',#1426,#1133,#1134);
#1037=AXIS2_PLACEMENT_3D('',#1436,#1140,#1141);
#1038=AXIS2_PLACEMENT_3D('',#1440,#1144,#1145);
#1039=AXIS2_PLACEMENT_3D('',#1448,#1150,#1151);
#1040=AXIS2_PLACEMENT_3D('',#1454,#1155,#1156);
#1041=AXIS2_PLACEMENT_3D('',#1460,#1160,#1161);
#1042=AXIS2_PLACEMENT_3D('',#1464,#1164,#1165);
#1043=AXIS2_PLACEMENT_3D('',#1468,#1168,#1169);
#1044=AXIS2_PLACEMENT_3D('',#1474,#1173,#1174);
#1045=AXIS2_PLACEMENT_3D('',#1476,#1176,#1177);
#1046=AXIS2_PLACEMENT_3D('',#1482,#1181,#1182);
#1047=AXIS2_PLACEMENT_3D('',#1490,#1186,#1187);
#1048=AXIS2_PLACEMENT_3D('',#1494,#1189,#1190);
#1049=AXIS2_PLACEMENT_3D('',#1498,#1192,#1193);
#1050=AXIS2_PLACEMENT_3D('',#1501,#1195,#1196);
#1051=AXIS2_PLACEMENT_3D('',#1503,#1197,#1198);
#1052=AXIS2_PLACEMENT_3D('',#1505,#1199,#1200);
#1053=AXIS2_PLACEMENT_3D('',#1507,#1201,#1202);
#1054=AXIS2_PLACEMENT_3D('',#1509,#1203,#1204);
#1055=AXIS2_PLACEMENT_3D('',#1510,#1205,#1206);
#1056=AXIS2_PLACEMENT_3D('',#1514,#1209,#1210);
#1057=AXIS2_PLACEMENT_3D('',#1520,#1214,#1215);
#1058=AXIS2_PLACEMENT_3D('',#1526,#1219,#1220);
#1059=AXIS2_PLACEMENT_3D('',#1530,#1222,#1223);
#1060=AXIS2_PLACEMENT_3D('',#1534,#1225,#1226);
#1061=AXIS2_PLACEMENT_3D('',#1538,#1228,#1229);
#1062=AXIS2_PLACEMENT_3D('',#1542,#1231,#1232);
#1063=AXIS2_PLACEMENT_3D('',#1548,#1235,#1236);
#1064=AXIS2_PLACEMENT_3D('',#1552,#1238,#1239);
#1065=AXIS2_PLACEMENT_3D('',#1556,#1241,#1242);
#1066=AXIS2_PLACEMENT_3D('',#1559,#1244,#1245);
#1067=AXIS2_PLACEMENT_3D('',#1560,#1246,#1247);
#1068=AXIS2_PLACEMENT_3D('',#1564,#1250,#1251);
#1069=AXIS2_PLACEMENT_3D('',#1568,#1254,#1255);
#1070=AXIS2_PLACEMENT_3D('',#1574,#1259,#1260);
#1071=AXIS2_PLACEMENT_3D('',#1576,#1262,#1263);
#1072=AXIS2_PLACEMENT_3D('',#1578,#1265,#1266);
#1073=AXIS2_PLACEMENT_3D('',#1583,#1269,#1270);
#1074=AXIS2_PLACEMENT_3D('',#1584,#1271,#1272);
#1075=AXIS2_PLACEMENT_3D('',#1588,#1275,#1276);
#1076=AXIS2_PLACEMENT_3D('',#1591,#1278,#1279);
#1077=AXIS2_PLACEMENT_3D('',#1592,#1280,#1281);
#1078=AXIS2_PLACEMENT_3D('',#1596,#1284,#1285);
#1079=AXIS2_PLACEMENT_3D('',#1597,#1286,#1287);
#1080=AXIS2_PLACEMENT_3D('',#1598,#1288,#1289);
#1081=AXIS2_PLACEMENT_3D('',#1600,#1291,#1292);
#1082=AXIS2_PLACEMENT_3D('',#1603,#1294,#1295);
#1083=AXIS2_PLACEMENT_3D('',#1604,#1296,#1297);
#1084=AXIS2_PLACEMENT_3D('',#1606,#1299,#1300);
#1085=AXIS2_PLACEMENT_3D('',#1612,#1304,#1305);
#1086=AXIS2_PLACEMENT_3D('',#1615,#1307,#1308);
#1087=AXIS2_PLACEMENT_3D('',#1616,#1309,#1310);
#1088=AXIS2_PLACEMENT_3D('',#1620,#1313,#1314);
#1089=AXIS2_PLACEMENT_3D('',#1623,#1316,#1317);
#1090=AXIS2_PLACEMENT_3D('',#1624,#1318,#1319);
#1091=AXIS2_PLACEMENT_3D('',#1626,#1321,#1322);
#1092=AXIS2_PLACEMENT_3D('',#1627,#1323,#1324);
#1093=AXIS2_PLACEMENT_3D('',#1629,#1326,#1327);
#1094=AXIS2_PLACEMENT_3D('',#1631,#1329,#1330);
#1095=AXIS2_PLACEMENT_3D('',#1633,#1332,#1333);
#1096=AXIS2_PLACEMENT_3D('',#1635,#1335,#1336);
#1097=AXIS2_PLACEMENT_3D('',#1639,#1339,#1340);
#1098=AXIS2_PLACEMENT_3D('',#1640,#1341,#1342);
#1099=AXIS2_PLACEMENT_3D('',#1641,#1343,#1344);
#1100=AXIS2_PLACEMENT_3D('',#1642,#1345,#1346);
#1101=AXIS2_PLACEMENT_3D('',#1647,#1348,#1349);
#1102=AXIS2_PLACEMENT_3D('',#1650,#1351,#1352);
#1103=AXIS2_PLACEMENT_3D('',#1651,#1353,#1354);
#1104=AXIS2_PLACEMENT_3D('',#1658,#1359,#1360);
#1105=AXIS2_PLACEMENT_3D('',#1662,#1362,#1363);
#1106=AXIS2_PLACEMENT_3D('',#1666,#1365,#1366);
#1107=AXIS2_PLACEMENT_3D('',#1669,#1368,#1369);
#1108=AXIS2_PLACEMENT_3D('',#1670,#1370,#1371);
#1109=AXIS2_PLACEMENT_3D('',#1675,#1375,#1376);
#1110=AXIS2_PLACEMENT_3D('',#1677,#1377,#1378);
#1111=AXIS2_PLACEMENT_3D('',#1679,#1380,#1381);
#1112=AXIS2_PLACEMENT_3D('',#1684,#1385,#1386);
#1113=AXIS2_PLACEMENT_3D('',#1686,#1387,#1388);
#1114=AXIS2_PLACEMENT_3D('',#1688,#1390,#1391);
#1115=AXIS2_PLACEMENT_3D('',#1691,#1393,#1394);
#1116=AXIS2_PLACEMENT_3D('',#1692,#1395,#1396);
#1117=AXIS2_PLACEMENT_3D('',#1695,#1399,#1400);
#1118=AXIS2_PLACEMENT_3D('',#1696,#1401,#1402);
#1119=AXIS2_PLACEMENT_3D('',#1697,#1403,#1404);
#1120=AXIS2_PLACEMENT_3D('',#1698,#1405,#1406);
#1121=AXIS2_PLACEMENT_3D('',#1699,#1407,#1408);
#1122=AXIS2_PLACEMENT_3D('',#1701,#1410,#1411);
#1123=DIRECTION('axis',(0.,0.,1.));
#1124=DIRECTION('refdir',(1.,0.,0.));
#1125=DIRECTION('center_axis',(-0.70710678118655,0.707106781186545,0.));
#1126=DIRECTION('ref_axis',(0.,0.,1.));
#1127=DIRECTION('',(0.577350269189624,0.577350269189628,-0.577350269189625));
#1128=DIRECTION('',(0.,0.,-1.));
#1129=DIRECTION('',(-0.577350269189624,-0.577350269189628,-0.577350269189625));
#1130=DIRECTION('',(-0.577350269189624,-0.577350269189628,0.577350269189625));
#1131=DIRECTION('',(0.,0.,1.));
#1132=DIRECTION('',(0.577350269189624,0.577350269189628,0.577350269189625));
#1133=DIRECTION('center_axis',(0.,0.707106781186546,-0.707106781186549));
#1134=DIRECTION('ref_axis',(-1.,0.,0.));
#1135=DIRECTION('',(1.,0.,0.));
#1136=DIRECTION('',(-0.577350269189624,0.577350269189628,0.577350269189625));
#1137=DIRECTION('',(0.577350269189624,0.577350269189628,0.577350269189625));
#1138=DIRECTION('',(-1.,0.,0.));
#1139=DIRECTION('',(0.577350269189624,-0.577350269189628,-0.577350269189625));
#1140=DIRECTION('center_axis',(0.,1.,0.));
#1141=DIRECTION('ref_axis',(0.,0.,1.));
#1142=DIRECTION('',(-1.,0.,0.));
#1143=DIRECTION('',(0.,0.,1.));
#1144=DIRECTION('center_axis',(0.,0.707106781186546,0.707106781186549));
#1145=DIRECTION('ref_axis',(1.,0.,0.));
#1146=DIRECTION('',(0.577350269189624,-0.577350269189628,0.577350269189625));
#1147=DIRECTION('',(1.,0.,0.));
#1148=DIRECTION('',(0.577350269189624,0.577350269189628,-0.577350269189625));
#1149=DIRECTION('',(0.577350269189624,-0.577350269189628,0.577350269189625));
#1150=DIRECTION('center_axis',(0.70710678118655,0.707106781186545,0.));
#1151=DIRECTION('ref_axis',(0.,0.,-1.));
#1152=DIRECTION('',(0.577350269189624,-0.577350269189628,-0.577350269189625));
#1153=DIRECTION('',(0.,0.,-1.));
#1154=DIRECTION('',(-0.577350269189624,0.577350269189628,-0.577350269189625));
#1155=DIRECTION('center_axis',(0.,0.,1.));
#1156=DIRECTION('ref_axis',(1.,0.,0.));
#1157=DIRECTION('',(0.,1.,0.));
#1158=DIRECTION('',(-1.,0.,0.));
#1159=DIRECTION('',(0.,-1.,0.));
#1160=DIRECTION('center_axis',(-0.707106781186548,0.,0.707106781186547));
#1161=DIRECTION('ref_axis',(0.707106781186547,0.,0.707106781186548));
#1162=DIRECTION('',(0.,-1.,0.));
#1163=DIRECTION('',(-0.577350269189625,-0.577350269189625,-0.577350269189627));
#1164=DIRECTION('center_axis',(0.,-0.707106781186548,0.707106781186547));
#1165=DIRECTION('ref_axis',(1.,0.,0.));
#1166=DIRECTION('',(1.,0.,0.));
#1167=DIRECTION('',(-0.577350269189625,0.577350269189625,0.577350269189627));
#1168=DIRECTION('center_axis',(0.,1.,0.));
#1169=DIRECTION('ref_axis',(-1.,0.,0.));
#1170=DIRECTION('',(0.,0.,-1.));
#1171=DIRECTION('',(-1.,0.,0.));
#1172=DIRECTION('',(0.,0.,1.));
#1173=DIRECTION('center_axis',(0.707106781186548,0.,0.707106781186547));
#1174=DIRECTION('ref_axis',(0.707106781186547,0.,-0.707106781186548));
#1175=DIRECTION('',(0.,1.,0.));
#1176=DIRECTION('center_axis',(-0.707106781186548,0.,-0.707106781186547));
#1177=DIRECTION('ref_axis',(-0.707106781186547,0.,0.707106781186548));
#1178=DIRECTION('',(0.,-1.,0.));
#1179=DIRECTION('',(0.577350269189627,-0.577350269189623,-0.577350269189628));
#1180=DIRECTION('',(0.,1.,0.));
#1181=DIRECTION('center_axis',(0.,0.,-1.));
#1182=DIRECTION('ref_axis',(1.,0.,0.));
#1183=DIRECTION('',(-1.,2.14262587738374E-16,0.));
#1184=DIRECTION('',(0.,1.,0.));
#1185=DIRECTION('',(-1.,2.14262587738374E-16,0.));
#1186=DIRECTION('center_axis',(0.,0.,1.));
#1187=DIRECTION('ref_axis',(-2.62257407391769E-15,1.,0.));
#1188=DIRECTION('',(0.,1.,0.));
#1189=DIRECTION('center_axis',(0.,0.,1.));
#1190=DIRECTION('ref_axis',(1.,1.96693055543827E-15,0.));
#1191=DIRECTION('',(1.,-1.07131293869187E-16,0.));
#1192=DIRECTION('center_axis',(0.,0.,1.));
#1193=DIRECTION('ref_axis',(8.74191357972566E-16,-1.,0.));
#1194=DIRECTION('',(2.0448920654329E-16,-1.,0.));
#1195=DIRECTION('center_axis',(0.,0.,1.));
#1196=DIRECTION('ref_axis',(-1.,-8.74191357972564E-16,0.));
#1197=DIRECTION('center_axis',(0.,0.,-1.));
#1198=DIRECTION('ref_axis',(1.,0.,0.));
#1199=DIRECTION('center_axis',(0.,0.,-1.));
#1200=DIRECTION('ref_axis',(1.,0.,0.));
#1201=DIRECTION('center_axis',(0.,0.,-1.));
#1202=DIRECTION('ref_axis',(1.,0.,0.));
#1203=DIRECTION('center_axis',(0.,0.,-1.));
#1204=DIRECTION('ref_axis',(1.,0.,0.));
#1205=DIRECTION('center_axis',(0.707106781186548,0.,-0.707106781186547));
#1206=DIRECTION('ref_axis',(-0.707106781186547,0.,-0.707106781186548));
#1207=DIRECTION('',(0.,-1.,0.));
#1208=DIRECTION('',(0.577350269189627,0.577350269189623,0.577350269189628));
#1209=DIRECTION('center_axis',(1.,0.,0.));
#1210=DIRECTION('ref_axis',(0.,0.,-1.));
#1211=DIRECTION('',(0.,-1.,0.));
#1212=DIRECTION('',(0.,-0.707106781186544,0.707106781186551));
#1213=DIRECTION('',(0.,0.,1.));
#1214=DIRECTION('center_axis',(-1.,0.,0.));
#1215=DIRECTION('ref_axis',(0.,0.,1.));
#1216=DIRECTION('',(0.,0.,-1.));
#1217=DIRECTION('',(0.,0.707106781186544,-0.707106781186551));
#1218=DIRECTION('',(0.,1.,0.));
#1219=DIRECTION('center_axis',(0.,0.,-1.));
#1220=DIRECTION('ref_axis',(1.,0.,0.));
#1221=DIRECTION('',(1.,-2.14262587738374E-16,0.));
#1222=DIRECTION('center_axis',(0.,0.,-1.));
#1223=DIRECTION('ref_axis',(-1.,-8.74191357972564E-16,0.));
#1224=DIRECTION('',(-2.0448920654329E-16,1.,0.));
#1225=DIRECTION('center_axis',(0.,0.,-1.));
#1226=DIRECTION('ref_axis',(8.74191357972566E-16,-1.,0.));
#1227=DIRECTION('',(-1.,1.07131293869187E-16,0.));
#1228=DIRECTION('center_axis',(0.,0.,-1.));
#1229=DIRECTION('ref_axis',(1.,1.96693055543827E-15,0.));
#1230=DIRECTION('',(0.,-1.,0.));
#1231=DIRECTION('center_axis',(0.,0.,-1.));
#1232=DIRECTION('ref_axis',(-2.62257407391769E-15,1.,0.));
#1233=DIRECTION('',(1.,-2.14262587738374E-16,0.));
#1234=DIRECTION('',(-1.,0.,0.));
#1235=DIRECTION('center_axis',(0.,0.,-1.));
#1236=DIRECTION('ref_axis',(1.,0.,0.));
#1237=DIRECTION('',(0.,1.,0.));
#1238=DIRECTION('center_axis',(0.,0.,-1.));
#1239=DIRECTION('ref_axis',(1.,0.,0.));
#1240=DIRECTION('',(1.,9.71323731080627E-17,0.));
#1241=DIRECTION('center_axis',(0.,0.,-1.));
#1242=DIRECTION('ref_axis',(1.,0.,0.));
#1243=DIRECTION('',(0.,-1.,0.));
#1244=DIRECTION('center_axis',(0.,0.,-1.));
#1245=DIRECTION('ref_axis',(1.,0.,0.));
#1246=DIRECTION('center_axis',(1.51506528744382E-16,0.707106781186551,-0.707106781186544));
#1247=DIRECTION('ref_axis',(-1.,0.,-2.14262587738376E-16));
#1248=DIRECTION('',(1.23629327455415E-15,-0.707106781186549,-0.707106781186546));
#1249=DIRECTION('',(1.,-2.14262587738374E-16,0.));
#1250=DIRECTION('center_axis',(2.14262587738374E-16,1.,0.));
#1251=DIRECTION('ref_axis',(-1.,2.14262587738374E-16,0.));
#1252=DIRECTION('',(0.,0.,1.));
#1253=DIRECTION('',(-1.,2.14262587738374E-16,0.));
#1254=DIRECTION('center_axis',(2.14262587738374E-16,1.,0.));
#1255=DIRECTION('ref_axis',(-1.,2.14262587738374E-16,0.));
#1256=DIRECTION('',(-1.,2.14262587738374E-16,0.));
#1257=DIRECTION('',(0.,0.,1.));
#1258=DIRECTION('',(1.,-2.14262587738374E-16,0.));
#1259=DIRECTION('center_axis',(1.51506528744382E-16,0.707106781186551,0.707106781186544));
#1260=DIRECTION('ref_axis',(1.,0.,-2.14262587738376E-16));
#1261=DIRECTION('',(1.23629327455416E-15,-0.707106781186544,0.707106781186551));
#1262=DIRECTION('center_axis',(1.51506528744382E-16,0.707106781186551,0.707106781186544));
#1263=DIRECTION('ref_axis',(1.,0.,-2.14262587738376E-16));
#1264=DIRECTION('',(0.,0.707106781186544,-0.707106781186551));
#1265=DIRECTION('center_axis',(0.,0.,1.));
#1266=DIRECTION('ref_axis',(1.,1.96693055543827E-15,0.));
#1267=DIRECTION('',(0.,0.707106781186546,-0.707106781186549));
#1268=DIRECTION('',(0.707106781186544,1.23629327455416E-15,0.707106781186551));
#1269=DIRECTION('center_axis',(0.,0.,-1.));
#1270=DIRECTION('ref_axis',(1.,1.96693055543827E-15,0.));
#1271=DIRECTION('center_axis',(-7.57532643721908E-17,-0.707106781186548,
-0.707106781186548));
#1272=DIRECTION('ref_axis',(-1.,0.,1.07131293869187E-16));
#1273=DIRECTION('',(-1.,1.07131293869187E-16,0.));
#1274=DIRECTION('',(0.,0.707106781186548,-0.707106781186548));
#1275=DIRECTION('center_axis',(0.,0.,1.));
#1276=DIRECTION('ref_axis',(8.74191357972566E-16,-1.,0.));
#1277=DIRECTION('',(0.707106781186548,-1.23629327455415E-15,-0.707106781186548));
#1278=DIRECTION('center_axis',(0.,0.,-1.));
#1279=DIRECTION('ref_axis',(8.74191357972566E-16,-1.,0.));
#1280=DIRECTION('center_axis',(-0.707106781186549,-1.44595704626217E-16,
-0.707106781186546));
#1281=DIRECTION('ref_axis',(-0.707106781186546,0.,0.707106781186549));
#1282=DIRECTION('',(-2.0448920654329E-16,1.,0.));
#1283=DIRECTION('',(0.707106781186546,0.,-0.707106781186549));
#1284=DIRECTION('center_axis',(0.,0.,1.));
#1285=DIRECTION('ref_axis',(-1.,-8.74191357972564E-16,0.));
#1286=DIRECTION('center_axis',(0.,0.,-1.));
#1287=DIRECTION('ref_axis',(-1.,-8.74191357972564E-16,0.));
#1288=DIRECTION('center_axis',(1.51506528744382E-16,0.707106781186551,-0.707106781186544));
#1289=DIRECTION('ref_axis',(-1.,0.,-2.14262587738376E-16));
#1290=DIRECTION('',(0.,-0.707106781186544,-0.707106781186551));
#1291=DIRECTION('center_axis',(0.,0.,1.));
#1292=DIRECTION('ref_axis',(-2.62257407391769E-15,1.,0.));
#1293=DIRECTION('',(-0.707106781186549,0.,-0.707106781186546));
#1294=DIRECTION('center_axis',(0.,0.,-1.));
#1295=DIRECTION('ref_axis',(-2.62257407391769E-15,1.,0.));
#1296=DIRECTION('center_axis',(0.707106781186546,0.,-0.707106781186549));
#1297=DIRECTION('ref_axis',(-0.707106781186549,0.,-0.707106781186546));
#1298=DIRECTION('',(0.,-1.,0.));
#1299=DIRECTION('center_axis',(-1.,-2.0448920654329E-16,0.));
#1300=DIRECTION('ref_axis',(2.0448920654329E-16,-1.,0.));
#1301=DIRECTION('',(0.,0.,1.));
#1302=DIRECTION('',(2.0448920654329E-16,-1.,0.));
#1303=DIRECTION('',(0.,0.,1.));
#1304=DIRECTION('center_axis',(0.,0.,1.));
#1305=DIRECTION('ref_axis',(8.74191357972566E-16,-1.,0.));
#1306=DIRECTION('',(0.,0.,1.));
#1307=DIRECTION('center_axis',(0.,0.,1.));
#1308=DIRECTION('ref_axis',(8.74191357972566E-16,-1.,0.));
#1309=DIRECTION('center_axis',(-1.07131293869187E-16,-1.,0.));
#1310=DIRECTION('ref_axis',(1.,-1.07131293869187E-16,0.));
#1311=DIRECTION('',(0.,0.,1.));
#1312=DIRECTION('',(1.,-1.07131293869187E-16,0.));
#1313=DIRECTION('center_axis',(0.,0.,1.));
#1314=DIRECTION('ref_axis',(1.,1.96693055543827E-15,0.));
#1315=DIRECTION('',(0.,0.,1.));
#1316=DIRECTION('center_axis',(0.,0.,1.));
#1317=DIRECTION('ref_axis',(1.,1.96693055543827E-15,0.));
#1318=DIRECTION('center_axis',(0.,0.,-1.));
#1319=DIRECTION('ref_axis',(-1.,-8.74191357972564E-16,0.));
#1320=DIRECTION('',(0.707106781186548,0.,0.707106781186547));
#1321=DIRECTION('center_axis',(0.,0.,1.));
#1322=DIRECTION('ref_axis',(-1.,-8.74191357972564E-16,0.));
#1323=DIRECTION('center_axis',(-0.707106781186549,-1.44595704626217E-16,
0.707106781186546));
#1324=DIRECTION('ref_axis',(0.707106781186546,0.,0.707106781186549));
#1325=DIRECTION('',(0.707106781186546,0.,0.707106781186549));
#1326=DIRECTION('center_axis',(0.,0.,-1.));
#1327=DIRECTION('ref_axis',(8.74191357972566E-16,-1.,0.));
#1328=DIRECTION('',(-1.23629327455415E-15,0.707106781186548,0.707106781186548));
#1329=DIRECTION('center_axis',(-7.57532643721908E-17,-0.707106781186548,
0.707106781186548));
#1330=DIRECTION('ref_axis',(1.,0.,1.07131293869187E-16));
#1331=DIRECTION('',(0.,0.707106781186545,0.70710678118655));
#1332=DIRECTION('center_axis',(0.,0.,-1.));
#1333=DIRECTION('ref_axis',(1.,1.96693055543827E-15,0.));
#1334=DIRECTION('',(-0.707106781186544,-1.23629327455416E-15,0.707106781186551));
#1335=DIRECTION('center_axis',(0.707106781186546,0.,0.707106781186549));
#1336=DIRECTION('ref_axis',(0.707106781186549,0.,-0.707106781186546));
#1337=DIRECTION('',(-0.707106781186554,0.,0.707106781186541));
#1338=DIRECTION('',(0.,1.,0.));
#1339=DIRECTION('center_axis',(0.,0.,-1.));
#1340=DIRECTION('ref_axis',(-2.62257407391769E-15,1.,0.));
#1341=DIRECTION('center_axis',(0.,0.,1.));
#1342=DIRECTION('ref_axis',(-2.62257407391769E-15,1.,0.));
#1343=DIRECTION('center_axis',(0.,0.,1.));
#1344=DIRECTION('ref_axis',(-1.,-8.74191357972564E-16,0.));
#1345=DIRECTION('center_axis',(0.,0.,-1.));
#1346=DIRECTION('ref_axis',(1.,0.,0.));
#1347=DIRECTION('',(-0.642787609686539,0.,0.766044443118978));
#1348=DIRECTION('center_axis',(0.,0.,1.));
#1349=DIRECTION('ref_axis',(1.,0.,0.));
#1350=DIRECTION('',(0.,-0.642787609686539,-0.766044443118978));
#1351=DIRECTION('center_axis',(0.,0.,1.));
#1352=DIRECTION('ref_axis',(1.,0.,0.));
#1353=DIRECTION('center_axis',(-9.71323731080627E-17,1.,0.));
#1354=DIRECTION('ref_axis',(1.,9.71323731080627E-17,0.));
#1355=DIRECTION('',(1.,9.71323731080627E-17,0.));
#1356=DIRECTION('',(-0.642787609686538,-9.98967774933004E-16,-0.766044443118979));
#1357=DIRECTION('',(0.,0.,-1.));
#1358=DIRECTION('',(0.,0.,1.));
#1359=DIRECTION('center_axis',(0.,0.,1.));
#1360=DIRECTION('ref_axis',(-1.,0.,0.));
#1361=DIRECTION('',(0.,1.,0.));
#1362=DIRECTION('center_axis',(0.,0.,1.));
#1363=DIRECTION('ref_axis',(1.,0.,0.));
#1364=DIRECTION('',(-1.,0.,0.));
#1365=DIRECTION('center_axis',(0.,0.,1.));
#1366=DIRECTION('ref_axis',(1.,0.,0.));
#1367=DIRECTION('',(0.,-1.,0.));
#1368=DIRECTION('center_axis',(0.,0.,1.));
#1369=DIRECTION('ref_axis',(1.,0.,0.));
#1370=DIRECTION('center_axis',(-1.,0.,0.));
#1371=DIRECTION('ref_axis',(0.,1.,0.));
#1372=DIRECTION('',(0.,0.,-1.));
#1373=DIRECTION('',(0.,0.,1.));
#1374=DIRECTION('',(0.,-0.642787609686539,0.766044443118978));
#1375=DIRECTION('center_axis',(0.,0.,-1.));
#1376=DIRECTION('ref_axis',(1.,0.,0.));
#1377=DIRECTION('center_axis',(0.,0.,1.));
#1378=DIRECTION('ref_axis',(1.,0.,0.));
#1379=DIRECTION('',(0.642787609686539,0.,-0.766044443118978));
#1380=DIRECTION('center_axis',(0.,-1.,0.));
#1381=DIRECTION('ref_axis',(-1.,0.,0.));
#1382=DIRECTION('',(0.,0.,-1.));
#1383=DIRECTION('',(0.,0.,1.));
#1384=DIRECTION('',(0.642787609686538,0.,0.766044443118979));
#1385=DIRECTION('center_axis',(0.,0.,-1.));
#1386=DIRECTION('ref_axis',(1.,0.,0.));
#1387=DIRECTION('center_axis',(0.,0.,1.));
#1388=DIRECTION('ref_axis',(1.,0.,0.));
#1389=DIRECTION('',(0.,0.642787609686539,-0.766044443118978));
#1390=DIRECTION('center_axis',(0.,0.,-1.));
#1391=DIRECTION('ref_axis',(1.,0.,0.));
#1392=DIRECTION('',(0.,0.642787609686539,0.766044443118978));
#1393=DIRECTION('center_axis',(0.,0.,1.));
#1394=DIRECTION('ref_axis',(1.,0.,0.));
#1395=DIRECTION('center_axis',(1.,0.,0.));
#1396=DIRECTION('ref_axis',(0.,-1.,0.));
#1397=DIRECTION('',(0.,0.,-1.));
#1398=DIRECTION('',(0.,0.,1.));
#1399=DIRECTION('center_axis',(0.,0.,1.));
#1400=DIRECTION('ref_axis',(1.,0.,0.));
#1401=DIRECTION('center_axis',(0.,0.,1.));
#1402=DIRECTION('ref_axis',(1.,0.,0.));
#1403=DIRECTION('center_axis',(0.,0.,1.));
#1404=DIRECTION('ref_axis',(1.,0.,0.));
#1405=DIRECTION('center_axis',(0.,0.,1.));
#1406=DIRECTION('ref_axis',(1.,0.,0.));
#1407=DIRECTION('center_axis',(0.,0.,1.));
#1408=DIRECTION('ref_axis',(-2.62257407391769E-15,1.,0.));
#1409=DIRECTION('',(0.,0.,1.));
#1410=DIRECTION('center_axis',(1.,0.,0.));
#1411=DIRECTION('ref_axis',(0.,1.,0.));
#1412=CARTESIAN_POINT('',(0.,0.,0.));
#1413=CARTESIAN_POINT('Origin',(1.84615666666667,4.04495,-0.19812));
#1414=CARTESIAN_POINT('',(1.84615666666667,4.04495,0.12827));
#1415=CARTESIAN_POINT('',(1.87790666666667,4.0767,0.0965200000000001));
#1416=CARTESIAN_POINT('',(1.96987583333333,4.16866916666667,0.00455083333333355));
#1417=CARTESIAN_POINT('',(1.87790666666667,4.0767,-0.254));
#1418=CARTESIAN_POINT('',(1.87790666666667,4.0767,-0.19812));
#1419=CARTESIAN_POINT('',(1.84615666666667,4.04495,-0.28575));
#1420=CARTESIAN_POINT('',(2.00451861111111,4.20331194444444,-0.127388055555556));
#1421=CARTESIAN_POINT('',(1.81440666666667,4.0132,-0.254));
#1422=CARTESIAN_POINT('',(1.58760583333333,3.78639916666666,-0.0271991666666661));
#1423=CARTESIAN_POINT('',(1.81440666666667,4.0132,0.0965200000000001));
#1424=CARTESIAN_POINT('',(1.81440666666667,4.0132,-0.19812));
#1425=CARTESIAN_POINT('',(1.69121666666667,3.89001,-0.0266700000000001));
#1426=CARTESIAN_POINT('Origin',(2.70869833333333,4.04495,-0.28575));
#1427=CARTESIAN_POINT('',(3.54160666666667,4.0767,-0.254));
#1428=CARTESIAN_POINT('',(2.70869833333333,4.0767,-0.254));
#1429=CARTESIAN_POINT('',(3.57335666666667,4.04495,-0.28575));
#1430=CARTESIAN_POINT('',(3.37484861111111,4.24345805555556,-0.0872419444444449));
#1431=CARTESIAN_POINT('',(3.54160666666667,4.0132,-0.3175));
#1432=CARTESIAN_POINT('',(3.18530111111111,3.65689444444444,-0.673805555555556));
#1433=CARTESIAN_POINT('',(1.87790666666667,4.0132,-0.3175));
#1434=CARTESIAN_POINT('',(2.70869833333333,4.0132,-0.3175));
#1435=CARTESIAN_POINT('',(2.23385944444444,3.65724722222222,-0.673452777777778));
#1436=CARTESIAN_POINT('Origin',(2.70975666666667,4.0767,-0.07874));
#1437=CARTESIAN_POINT('',(3.54160666666667,4.0767,0.0965200000000001));
#1438=CARTESIAN_POINT('',(2.26208166666667,4.0767,0.0965200000000001));
#1439=CARTESIAN_POINT('',(3.54160666666667,4.0767,0.04064));
#1440=CARTESIAN_POINT('Origin',(2.26208166666667,4.04495,0.12827));
#1441=CARTESIAN_POINT('',(1.87790666666667,4.0132,0.16002));
#1442=CARTESIAN_POINT('',(2.01601916666667,3.8750875,0.2981325));
#1443=CARTESIAN_POINT('',(3.54160666666667,4.0132,0.16002));
#1444=CARTESIAN_POINT('',(2.26208166666667,4.0132,0.16002));
#1445=CARTESIAN_POINT('',(3.57335666666667,4.04495,0.12827));
#1446=CARTESIAN_POINT('',(3.25426916666667,3.7258625,0.4473575));
#1447=CARTESIAN_POINT('',(3.34020583333333,4.27810083333333,-0.104880833333332));
#1448=CARTESIAN_POINT('Origin',(3.57335666666667,4.04495,0.04064));
#1449=CARTESIAN_POINT('',(3.60510666666667,4.0132,0.0965200000000001));
#1450=CARTESIAN_POINT('',(3.68850333333333,3.92980333333333,0.013123333333333));
#1451=CARTESIAN_POINT('',(3.60510666666667,4.0132,-0.254));
#1452=CARTESIAN_POINT('',(3.60510666666667,4.0132,0.04064));
#1453=CARTESIAN_POINT('',(3.87170083333333,3.74660583333333,0.0125941666666673));
#1454=CARTESIAN_POINT('Origin',(1.81440666666667,3.4417,0.16002));
#1455=CARTESIAN_POINT('',(1.87790666666667,3.5052,0.16002));
#1456=CARTESIAN_POINT('',(1.87790666666667,3.4417,0.16002));
#1457=CARTESIAN_POINT('',(3.54160666666667,3.5052,0.16002));
#1458=CARTESIAN_POINT('',(2.26208166666667,3.5052,0.16002));
#1459=CARTESIAN_POINT('',(3.54160666666667,3.4417,0.16002));
#1460=CARTESIAN_POINT('Origin',(1.84615666666667,3.4417,0.12827));
#1461=CARTESIAN_POINT('',(1.81440666666667,3.4417,0.0965200000000001));
#1462=CARTESIAN_POINT('',(1.81440666666667,3.4417,0.0965200000000001));
#1463=CARTESIAN_POINT('',(1.91018583333333,3.53747916666667,0.192299166666667));
#1464=CARTESIAN_POINT('Origin',(2.26208166666667,3.47345,0.12827));
#1465=CARTESIAN_POINT('',(3.60510666666667,3.4417,0.0965200000000001));
#1466=CARTESIAN_POINT('',(2.26208166666667,3.4417,0.0965200000000001));
#1467=CARTESIAN_POINT('',(3.3601025,3.68670416666667,0.341524166666667));
#1468=CARTESIAN_POINT('Origin',(2.70975666666667,3.4417,-0.07874));
#1469=CARTESIAN_POINT('',(1.81440666666667,3.4417,0.));
#1470=CARTESIAN_POINT('',(1.81440666666667,3.4417,0.16002));
#1471=CARTESIAN_POINT('',(3.60510666666667,3.4417,0.));
#1472=CARTESIAN_POINT('',(2.70869833333333,3.4417,0.));
#1473=CARTESIAN_POINT('',(3.60510666666667,3.4417,-0.3175));
#1474=CARTESIAN_POINT('Origin',(3.57335666666667,3.4417,0.12827));
#1475=CARTESIAN_POINT('',(3.60510666666667,3.4417,0.0965200000000001));
#1476=CARTESIAN_POINT('Origin',(1.84615666666667,2.581275,-0.28575));
#1477=CARTESIAN_POINT('',(1.87790666666667,3.7592,-0.3175));
#1478=CARTESIAN_POINT('',(1.87790666666667,2.581275,-0.3175));
#1479=CARTESIAN_POINT('',(1.81440666666667,3.8227,-0.254));
#1480=CARTESIAN_POINT('',(2.36406972222222,3.27303694444445,-0.803663055555557));
#1481=CARTESIAN_POINT('',(1.81440666666667,2.581275,-0.254));
#1482=CARTESIAN_POINT('Origin',(2.70764,1.72085,-0.3175));
#1483=CARTESIAN_POINT('',(0.635,3.7592,-0.3175));
#1484=CARTESIAN_POINT('',(3.74396,3.7592,-0.3175));
#1485=CARTESIAN_POINT('',(3.54160666666667,3.7592,-0.3175));
#1486=CARTESIAN_POINT('',(3.54160666666667,2.581275,-0.3175));
#1487=CARTESIAN_POINT('',(4.78028,3.7592,-0.3175));
#1488=CARTESIAN_POINT('',(3.74396,3.7592,-0.3175));
#1489=CARTESIAN_POINT('',(5.73278,2.8067,-0.3175));
#1490=CARTESIAN_POINT('Origin',(4.78028,2.8067,-0.3175));
#1491=CARTESIAN_POINT('',(5.73278,0.635,-0.3175));
#1492=CARTESIAN_POINT('',(5.73278,1.177925,-0.3175));
#1493=CARTESIAN_POINT('',(4.78028,-0.3175,-0.3175));
#1494=CARTESIAN_POINT('Origin',(4.78028,0.634999999999998,-0.3175));
#1495=CARTESIAN_POINT('',(0.634999999999999,-0.3175,-0.3175));
#1496=CARTESIAN_POINT('',(1.67132,-0.3175,-0.3175));
#1497=CARTESIAN_POINT('',(-0.317499999999999,0.635,-0.3175));
#1498=CARTESIAN_POINT('Origin',(0.634999999999998,0.634999999999998,-0.3175));
#1499=CARTESIAN_POINT('',(-0.3175,2.8067,-0.3175));
#1500=CARTESIAN_POINT('',(-0.3175,2.263775,-0.3175));
#1501=CARTESIAN_POINT('Origin',(0.635000000000001,2.8067,-0.3175));
#1502=CARTESIAN_POINT('',(0.0342900000000003,2.99085,-0.3175));
#1503=CARTESIAN_POINT('Origin',(0.42164,2.99085,-0.3175));
#1504=CARTESIAN_POINT('',(4.60629,0.45085,-0.3175));
#1505=CARTESIAN_POINT('Origin',(4.99364,0.45085,-0.3175));
#1506=CARTESIAN_POINT('',(4.60629,2.99085,-0.3175));
#1507=CARTESIAN_POINT('Origin',(4.99364,2.99085,-0.3175));
#1508=CARTESIAN_POINT('',(0.0342899999999999,0.45085,-0.3175));
#1509=CARTESIAN_POINT('Origin',(0.42164,0.45085,-0.3175));
#1510=CARTESIAN_POINT('Origin',(3.57335666666667,2.581275,-0.28575));
#1511=CARTESIAN_POINT('',(3.60510666666667,3.8227,-0.254));
#1512=CARTESIAN_POINT('',(3.60510666666667,2.581275,-0.254));
#1513=CARTESIAN_POINT('',(3.40017805555556,3.61777138888889,-0.458928611111111));
#1514=CARTESIAN_POINT('Origin',(3.60510666666667,3.4417,0.16002));
#1515=CARTESIAN_POINT('',(3.60510666666667,3.7592,0.));
#1516=CARTESIAN_POINT('',(3.60510666666667,2.581275,0.));
#1517=CARTESIAN_POINT('',(3.60510666666667,3.8227,-0.0635));
#1518=CARTESIAN_POINT('',(3.60510666666667,3.655695,0.103505));
#1519=CARTESIAN_POINT('',(3.60510666666667,3.8227,-0.07874));
#1520=CARTESIAN_POINT('Origin',(1.81440666666667,3.4417,-0.3175));
#1521=CARTESIAN_POINT('',(1.81440666666667,3.8227,-0.0635));
#1522=CARTESIAN_POINT('',(1.81440666666667,3.8227,-0.3175));
#1523=CARTESIAN_POINT('',(1.81440666666667,3.7592,0.));
#1524=CARTESIAN_POINT('',(1.81440666666667,3.775075,-0.0158750000000005));
#1525=CARTESIAN_POINT('',(1.81440666666667,2.581275,0.));
#1526=CARTESIAN_POINT('Origin',(2.70764,1.72085,0.));
#1527=CARTESIAN_POINT('',(0.635,3.7592,0.));
#1528=CARTESIAN_POINT('',(3.74396,3.7592,0.));
#1529=CARTESIAN_POINT('',(-0.3175,2.8067,0.));
#1530=CARTESIAN_POINT('Origin',(0.635000000000001,2.8067,0.));
#1531=CARTESIAN_POINT('',(-0.3175,0.635,0.));
#1532=CARTESIAN_POINT('',(-0.3175,2.263775,0.));
#1533=CARTESIAN_POINT('',(0.634999999999999,-0.3175,0.));
#1534=CARTESIAN_POINT('Origin',(0.634999999999998,0.634999999999998,0.));
#1535=CARTESIAN_POINT('',(4.78028,-0.3175,0.));
#1536=CARTESIAN_POINT('',(1.67132,-0.3175,0.));
#1537=CARTESIAN_POINT('',(5.73278,0.635,0.));
#1538=CARTESIAN_POINT('Origin',(4.78028,0.634999999999998,0.));
#1539=CARTESIAN_POINT('',(5.73278,2.8067,0.));
#1540=CARTESIAN_POINT('',(5.73278,1.177925,0.));
#1541=CARTESIAN_POINT('',(4.78028,3.7592,0.));
#1542=CARTESIAN_POINT('Origin',(4.78028,2.8067,0.));
#1543=CARTESIAN_POINT('',(3.74396,3.7592,0.));
#1544=CARTESIAN_POINT('',(4.80949,0.45085,0.));
#1545=CARTESIAN_POINT('',(0.60579,0.45085,0.));
#1546=CARTESIAN_POINT('',(3.758565,0.45085,0.));
#1547=CARTESIAN_POINT('',(0.42164,0.635,0.));
#1548=CARTESIAN_POINT('Origin',(0.42164,0.45085,0.));
#1549=CARTESIAN_POINT('',(0.42164,2.8067,0.));
#1550=CARTESIAN_POINT('',(0.42164,1.177925,0.));
#1551=CARTESIAN_POINT('',(0.60579,2.99085,0.));
#1552=CARTESIAN_POINT('Origin',(0.42164,2.99085,0.));
#1553=CARTESIAN_POINT('',(4.80949,2.99085,0.));
#1554=CARTESIAN_POINT('',(1.656715,2.99085,0.));
#1555=CARTESIAN_POINT('',(4.99364,2.8067,0.));
#1556=CARTESIAN_POINT('Origin',(4.99364,2.99085,0.));
#1557=CARTESIAN_POINT('',(4.99364,0.635,0.));
#1558=CARTESIAN_POINT('',(4.99364,2.263775,0.));
#1559=CARTESIAN_POINT('Origin',(4.99364,0.45085,0.));
#1560=CARTESIAN_POINT('Origin',(3.74396,3.79095,-0.28575));
#1561=CARTESIAN_POINT('',(0.635,3.8227,-0.254));
#1562=CARTESIAN_POINT('',(0.635,3.8227,-0.254));
#1563=CARTESIAN_POINT('',(3.74396,3.8227,-0.254));
#1564=CARTESIAN_POINT('Origin',(4.78028,3.8227,-0.3175));
#1565=CARTESIAN_POINT('',(0.635,3.8227,-0.0635));
#1566=CARTESIAN_POINT('',(0.635,3.8227,-0.3175));
#1567=CARTESIAN_POINT('',(3.74396,3.8227,-0.0635));
#1568=CARTESIAN_POINT('Origin',(4.78028,3.8227,-0.3175));
#1569=CARTESIAN_POINT('',(4.78028,3.8227,-0.0635));
#1570=CARTESIAN_POINT('',(3.74396,3.8227,-0.0635));
#1571=CARTESIAN_POINT('',(4.78028,3.8227,-0.254));
#1572=CARTESIAN_POINT('',(4.78028,3.8227,-0.3175));
#1573=CARTESIAN_POINT('',(3.74396,3.8227,-0.254));
#1574=CARTESIAN_POINT('Origin',(3.74396,3.79095,-0.03175));
#1575=CARTESIAN_POINT('',(0.635,3.8227,-0.0635));
#1576=CARTESIAN_POINT('Origin',(3.74396,3.79095,-0.03175));
#1577=CARTESIAN_POINT('',(4.78028,3.7592,0.));
#1578=CARTESIAN_POINT('Origin',(4.78028,0.634999999999998,-0.28575));
#1579=CARTESIAN_POINT('',(4.78028,-0.381,-0.254));
#1580=CARTESIAN_POINT('',(4.78028,-0.381,-0.254));
#1581=CARTESIAN_POINT('',(5.79628,0.635,-0.254));
#1582=CARTESIAN_POINT('',(5.73278,0.635,-0.3175));
#1583=CARTESIAN_POINT('Origin',(4.78028,0.634999999999998,-0.254));
#1584=CARTESIAN_POINT('Origin',(1.67132,-0.34925,-0.28575));
#1585=CARTESIAN_POINT('',(0.634999999999999,-0.381,-0.254));
#1586=CARTESIAN_POINT('',(1.67132,-0.381,-0.254));
#1587=CARTESIAN_POINT('',(0.634999999999999,-0.381,-0.254));
#1588=CARTESIAN_POINT('Origin',(0.634999999999998,0.634999999999998,-0.28575));
#1589=CARTESIAN_POINT('',(-0.380999999999999,0.635,-0.254));
#1590=CARTESIAN_POINT('',(-0.380999999999999,0.635,-0.254));
#1591=CARTESIAN_POINT('Origin',(0.634999999999998,0.634999999999998,-0.254));
#1592=CARTESIAN_POINT('Origin',(-0.34925,2.263775,-0.28575));
#1593=CARTESIAN_POINT('',(-0.381,2.8067,-0.254));
#1594=CARTESIAN_POINT('',(-0.381,2.263775,-0.254));
#1595=CARTESIAN_POINT('',(-0.381,2.8067,-0.254));
#1596=CARTESIAN_POINT('Origin',(0.635000000000001,2.8067,-0.28575));
#1597=CARTESIAN_POINT('Origin',(0.635000000000001,2.8067,-0.254));
#1598=CARTESIAN_POINT('Origin',(3.74396,3.79095,-0.28575));
#1599=CARTESIAN_POINT('',(4.78028,3.8227,-0.254));
#1600=CARTESIAN_POINT('Origin',(4.78028,2.8067,-0.28575));
#1601=CARTESIAN_POINT('',(5.79628,2.8067,-0.254));
#1602=CARTESIAN_POINT('',(5.79628,2.8067,-0.254));
#1603=CARTESIAN_POINT('Origin',(4.78028,2.8067,-0.254));
#1604=CARTESIAN_POINT('Origin',(5.76453,1.177925,-0.28575));
#1605=CARTESIAN_POINT('',(5.79628,1.177925,-0.254));
#1606=CARTESIAN_POINT('Origin',(-0.381,2.8067,-0.3175));
#1607=CARTESIAN_POINT('',(-0.380999999999999,0.635,-0.0635));
#1608=CARTESIAN_POINT('',(-0.380999999999999,0.635,-0.3175));
#1609=CARTESIAN_POINT('',(-0.381,2.8067,-0.0635));
#1610=CARTESIAN_POINT('',(-0.381,2.263775,-0.0635));
#1611=CARTESIAN_POINT('',(-0.381,2.8067,-0.3175));
#1612=CARTESIAN_POINT('Origin',(0.634999999999998,0.634999999999998,-0.3175));
#1613=CARTESIAN_POINT('',(0.634999999999999,-0.381,-0.0635));
#1614=CARTESIAN_POINT('',(0.634999999999999,-0.381,-0.3175));
#1615=CARTESIAN_POINT('Origin',(0.634999999999998,0.634999999999998,-0.0635));
#1616=CARTESIAN_POINT('Origin',(0.634999999999999,-0.381,-0.3175));
#1617=CARTESIAN_POINT('',(4.78028,-0.381,-0.0635));
#1618=CARTESIAN_POINT('',(4.78028,-0.381,-0.3175));
#1619=CARTESIAN_POINT('',(1.67132,-0.381,-0.0635));
#1620=CARTESIAN_POINT('Origin',(4.78028,0.634999999999998,-0.3175));
#1621=CARTESIAN_POINT('',(5.79628,0.635,-0.0635));
#1622=CARTESIAN_POINT('',(5.79628,0.635,-0.3175));
#1623=CARTESIAN_POINT('Origin',(4.78028,0.634999999999998,-0.0635));
#1624=CARTESIAN_POINT('Origin',(0.635000000000001,2.8067,-0.03175));
#1625=CARTESIAN_POINT('',(-0.381,2.8067,-0.0635));
#1626=CARTESIAN_POINT('Origin',(0.635000000000001,2.8067,-0.0635));
#1627=CARTESIAN_POINT('Origin',(-0.34925,2.263775,-0.03175));
#1628=CARTESIAN_POINT('',(-0.380999999999999,0.635,-0.0635));
#1629=CARTESIAN_POINT('Origin',(0.634999999999998,0.634999999999998,-0.03175));
#1630=CARTESIAN_POINT('',(0.634999999999999,-0.381,-0.0635));
#1631=CARTESIAN_POINT('Origin',(1.67132,-0.34925,-0.03175));
#1632=CARTESIAN_POINT('',(4.78028,-0.381,-0.0635));
#1633=CARTESIAN_POINT('Origin',(4.78028,0.634999999999998,-0.03175));
#1634=CARTESIAN_POINT('',(5.79628,0.635,-0.0635));
#1635=CARTESIAN_POINT('Origin',(5.76453,1.177925,-0.03175));
#1636=CARTESIAN_POINT('',(5.79628,2.8067,-0.0635));
#1637=CARTESIAN_POINT('',(5.79628,2.8067,-0.0635));
#1638=CARTESIAN_POINT('',(5.79628,1.177925,-0.0635));
#1639=CARTESIAN_POINT('Origin',(4.78028,2.8067,-0.03175));
#1640=CARTESIAN_POINT('Origin',(4.78028,2.8067,-0.0635));
#1641=CARTESIAN_POINT('Origin',(0.635000000000001,2.8067,-0.3175));
#1642=CARTESIAN_POINT('Origin',(0.42164,2.99085,-0.196417834992428));
#1643=CARTESIAN_POINT('',(0.649141520260728,2.99085,-0.127));
#1644=CARTESIAN_POINT('',(0.60579,2.99085,-0.0753356699848566));
#1645=CARTESIAN_POINT('',(0.70739,2.99085,-0.196417834992428));
#1646=CARTESIAN_POINT('',(0.42164,2.8067,-0.0753356699848566));
#1647=CARTESIAN_POINT('Origin',(0.42164,2.99085,-0.0753356699848566));
#1648=CARTESIAN_POINT('',(0.42164,2.76334847973927,-0.127));
#1649=CARTESIAN_POINT('',(0.42164,2.7051,-0.196417834992428));
#1650=CARTESIAN_POINT('Origin',(0.42164,2.99085,-0.127));
#1651=CARTESIAN_POINT('Origin',(0.60579,2.99085,0.));
#1652=CARTESIAN_POINT('',(4.76613847973927,2.99085,-0.127));
#1653=CARTESIAN_POINT('',(4.99364,2.99085,-0.127));
#1654=CARTESIAN_POINT('',(4.80949,2.99085,-0.0753356699848566));
#1655=CARTESIAN_POINT('',(4.70789,2.99085,-0.196417834992428));
#1656=CARTESIAN_POINT('',(4.80949,2.99085,-0.3175));
#1657=CARTESIAN_POINT('',(0.60579,2.99085,-0.3175));
#1658=CARTESIAN_POINT('Origin',(2.70764,1.72085,-0.127));
#1659=CARTESIAN_POINT('',(0.42164,0.678351520260728,-0.127));
#1660=CARTESIAN_POINT('',(0.42164,2.99085,-0.127));
#1661=CARTESIAN_POINT('',(0.649141520260728,0.45085,-0.127));
#1662=CARTESIAN_POINT('Origin',(0.42164,0.45085,-0.127));
#1663=CARTESIAN_POINT('',(4.76613847973927,0.45085,-0.127));
#1664=CARTESIAN_POINT('',(0.42164,0.45085,-0.127));
#1665=CARTESIAN_POINT('',(4.99364,0.678351520260728,-0.127));
#1666=CARTESIAN_POINT('Origin',(4.99364,0.45085,-0.127));
#1667=CARTESIAN_POINT('',(4.99364,2.76334847973927,-0.127));
#1668=CARTESIAN_POINT('',(4.99364,0.45085,-0.127));
#1669=CARTESIAN_POINT('Origin',(4.99364,2.99085,-0.127));
#1670=CARTESIAN_POINT('Origin',(0.42164,0.635,0.));
#1671=CARTESIAN_POINT('',(0.42164,2.8067,-0.3175));
#1672=CARTESIAN_POINT('',(0.42164,0.635,-0.0753356699848566));
#1673=CARTESIAN_POINT('',(0.42164,0.635,-0.3175));
#1674=CARTESIAN_POINT('',(0.42164,0.7366,-0.196417834992428));
#1675=CARTESIAN_POINT('Origin',(0.42164,0.45085,-0.196417834992428));
#1676=CARTESIAN_POINT('',(0.60579,0.45085,-0.0753356699848566));
#1677=CARTESIAN_POINT('Origin',(0.42164,0.45085,-0.0753356699848566));
#1678=CARTESIAN_POINT('',(0.70739,0.45085,-0.196417834992428));
#1679=CARTESIAN_POINT('Origin',(4.80949,0.45085,0.));
#1680=CARTESIAN_POINT('',(0.60579,0.45085,-0.3175));
#1681=CARTESIAN_POINT('',(4.80949,0.45085,-0.0753356699848566));
#1682=CARTESIAN_POINT('',(4.80949,0.45085,-0.3175));
#1683=CARTESIAN_POINT('',(4.70789,0.45085,-0.196417834992428));
#1684=CARTESIAN_POINT('Origin',(4.99364,0.45085,-0.196417834992428));
#1685=CARTESIAN_POINT('',(4.99364,0.635,-0.0753356699848566));
#1686=CARTESIAN_POINT('Origin',(4.99364,0.45085,-0.0753356699848566));
#1687=CARTESIAN_POINT('',(4.99364,0.736599999999999,-0.196417834992428));
#1688=CARTESIAN_POINT('Origin',(4.99364,2.99085,-0.196417834992428));
#1689=CARTESIAN_POINT('',(4.99364,2.8067,-0.0753356699848566));
#1690=CARTESIAN_POINT('',(4.99364,2.7051,-0.196417834992428));
#1691=CARTESIAN_POINT('Origin',(4.99364,2.99085,-0.0753356699848566));
#1692=CARTESIAN_POINT('Origin',(4.99364,2.8067,0.));
#1693=CARTESIAN_POINT('',(4.99364,0.635,-0.3175));
#1694=CARTESIAN_POINT('',(4.99364,2.8067,-0.3175));
#1695=CARTESIAN_POINT('Origin',(0.42164,0.45085,-0.3175));
#1696=CARTESIAN_POINT('Origin',(0.42164,2.99085,-0.3175));
#1697=CARTESIAN_POINT('Origin',(4.99364,2.99085,-0.3175));
#1698=CARTESIAN_POINT('Origin',(4.99364,0.45085,-0.3175));
#1699=CARTESIAN_POINT('Origin',(4.78028,2.8067,-0.3175));
#1700=CARTESIAN_POINT('',(5.79628,2.8067,-0.3175));
#1701=CARTESIAN_POINT('Origin',(5.79628,0.635,-0.3175));
#1702=UNCERTAINTY_MEASURE_WITH_UNIT(LENGTH_MEASURE(0.001),#1708,
'DISTANCE_ACCURACY_VALUE',
'Maximum model space distance between geometric entities at asserted c
onnectivities');
#1703=UNCERTAINTY_MEASURE_WITH_UNIT(LENGTH_MEASURE(1.E-6),#1709,
'DISTANCE_ACCURACY_VALUE',
'Maximum model space distance between geometric entities at asserted c
onnectivities');
#1704=(
GEOMETRIC_REPRESENTATION_CONTEXT(3)
GLOBAL_UNCERTAINTY_ASSIGNED_CONTEXT((#1702))
GLOBAL_UNIT_ASSIGNED_CONTEXT((#1708,#1707,#1706))
REPRESENTATION_CONTEXT('','3D')
);
#1705=(
GEOMETRIC_REPRESENTATION_CONTEXT(3)
GLOBAL_UNCERTAINTY_ASSIGNED_CONTEXT((#1703))
GLOBAL_UNIT_ASSIGNED_CONTEXT((#1709,#12,#1706))
REPRESENTATION_CONTEXT('','3D')
);
#1706=(
NAMED_UNIT(*)
SI_UNIT($,.STERADIAN.)
SOLID_ANGLE_UNIT()
);
#1707=(
NAMED_UNIT(*)
PLANE_ANGLE_UNIT()
SI_UNIT($,.RADIAN.)
);
#1708=(
LENGTH_UNIT()
NAMED_UNIT(*)
SI_UNIT(.CENTI.,.METRE.)
);
#1709=(
LENGTH_UNIT()
NAMED_UNIT(*)
SI_UNIT(.MILLI.,.METRE.)
);
#1710=SHAPE_DEFINITION_REPRESENTATION(#1711,#1712);
#1711=PRODUCT_DEFINITION_SHAPE('',$,#1714);
#1712=SHAPE_REPRESENTATION('',(#1034),#1704);
#1713=PRODUCT_DEFINITION_CONTEXT('part definition',#1718,'design');
#1714=PRODUCT_DEFINITION('Case Bottom','Case Bottom',#1715,#1713);
#1715=PRODUCT_DEFINITION_FORMATION('',$,#1720);
#1716=PRODUCT_RELATED_PRODUCT_CATEGORY('Case Bottom','Case Bottom',(#1720));
#1717=APPLICATION_PROTOCOL_DEFINITION('international standard',
'automotive_design',2009,#1718);
#1718=APPLICATION_CONTEXT(
'Core Data for Automotive Mechanical Design Process');
#1719=PRODUCT_CONTEXT('part definition',#1718,'mechanical');
#1720=PRODUCT('Case Bottom','Case Bottom',$,(#1719));
#1721=PRESENTATION_STYLE_ASSIGNMENT((#1722));
#1722=SURFACE_STYLE_USAGE(.BOTH.,#1723);
#1723=SURFACE_SIDE_STYLE('',(#1724));
#1724=SURFACE_STYLE_FILL_AREA(#1725);
#1725=FILL_AREA_STYLE('Acetal Resin (White)',(#1726));
#1726=FILL_AREA_STYLE_COLOUR('Acetal Resin (White)',#1727);
#1727=COLOUR_RGB('Acetal Resin (White)',0.972549019607843,0.968627450980392,
0.929411764705882);
ENDSEC;
END-ISO-10303-21;
